_/k726_sfp12_gtx_1g/.Xil/Vivado-3284-FXTVWR85EI30285/hw_ila_data_1/zip_work/waveform.vcd
$date
        2020-Dec-12 17:47:34
$end
$version
        Vivado v2019.2 (64-bit)
$end
$timescale
        1ps
$end
$scope module dut $end
$var reg 2 " gt1_frame_check/rx_ctrl [1:0] $end
$var reg 80 $ gt0_frame_gen/tx_data_out_wire [79:0] $end
$var reg 2 t gt0_frame_check/rx_ctrl [1:0] $end
$var reg 64 v gt1_frame_check/rx_data_wire [63:0] $end
$var reg 64 X" gt0_frame_check/rx_data_wire [63:0] $end
$var reg 8 :# gt0_frame_gen/tx_ctrl [7:0] $end
$var reg 8 B# gt1_frame_gen/tx_ctrl [7:0] $end
$var reg 80 J# gt1_frame_gen/tx_data_out_wire [79:0] $end
$var reg 1 <$ gt0_rxusrclk2_i $end
$var reg 1 =$ gt0_rxusrclk_i $end
$var reg 1 >$ gt1_rxusrclk2_i $end
$var reg 1 ?$ gt1_rxusrclk_i $end
$var reg 1 @$ rxresetdone_vio_i $end
$var reg 1 A$ soft_reset_vio_i $end
$var reg 1 B$ _TRIGGER $end
$var reg 1 C$ _WINDOW $end
$var reg 1 D$ _GAP $end
$upscope $end
$enddefinitions $end
#0
$dumpvars
b0 "
b1011100010110100101100001010110000000000000000 $
b0 t
b11000000100000000100000000 v
b1000000000011111000111101 X"
b0 :#
b0 B#
b1011100010110100101100001010110000000000000000 J#
0<$
1=$
1>$
1?$
0@$
0A$
0B$
1C$
0D$
$end
#1
b1 "
b1100100011000100110000001011110000000000000000 $
b110000001010000010010111100 v
b100101111000000001100000010 X"
b1100100011000100110000001011110000000000000000 J#
#2
b0 "
b1101100011010100110100001100110000000000000000 $
b1010000010010000100000000111 v
b1000000001110000011000000101 X"
b1101100011010100110100001100110000000000000000 J#
#3
b1110100011100100111000001101110000000000000000 $
b1110000011010000110000001011 v
b1100000010110000101000001001 X"
b1110100011100100111000001101110000000000000000 J#
#4
b1111100011110100111100001110110000000000000000 $
b10010000100010001000000001111 v
b10000000011110000111000001101 X"
b1111100011110100111100001110110000000000000000 J#
#5
b110000001000000001000000000000000000000000 $
b10110000101010001010000010011 v
b10100000100110001001000010001 X"
b110000001000000001000000000000000000000000 J#
#6
b1100000010100000100101111000000000100000000 $
b11010000110010001100000010111 v
b11000000101110001011000010101 X"
b1 :#
b1 B#
b1100000010100000100101111000000000100000000 J#
#7
b10100000100100001000000001110000000000000000 $
b11110000111010001110000011011 v
b11100000110110001101000011001 X"
b0 :#
b0 B#
b10100000100100001000000001110000000000000000 J#
#8
b11100000110100001100000010110000000000000000 $
b100010001000010010000000011111 v
b100000000111110001111000011101 X"
b11100000110100001100000010110000000000000000 J#
#9
b100100001000100010000000011110000000000000000 $
b100110001001010010010000100011 v
b100100001000110010001000100001 X"
b100100001000100010000000011110000000000000000 J#
#10
b101100001010100010100000100110000000000000000 $
b101010001010010010100000100111 v
b101000001001110010011000100101 X"
b101100001010100010100000100110000000000000000 J#
#11
b110100001100100011000000101110000000000000000 $
b101110001011010010110000101011 v
b101100001010110010101000101001 X"
b110100001100100011000000101110000000000000000 J#
#12
b111100001110100011100000110110000000000000000 $
b110010001100010011000000101111 v
b110000001011110010111000101101 X"
b111100001110100011100000110110000000000000000 J#
#13
b1000100010000100100000000111110000000000000000 $
b110110001101010011010000110011 v
b110100001100110011001000110001 X"
b1000100010000100100000000111110000000000000000 J#
#14
b1001100010010100100100001000110000000000000000 $
b111010001110010011100000110111 v
b111000001101110011011000110101 X"
b1001100010010100100100001000110000000000000000 J#
#15
b1010100010100100101000001001110000000000000000 $
b111110001111010011110000111011 v
b111100001110110011101000111001 X"
b1010100010100100101000001001110000000000000000 J#
#16
b1011100010110100101100001010110000000000000000 $
b11000000100000000100000000 v
b1000000000011111000111101 X"
b1011100010110100101100001010110000000000000000 J#
#17
b1 "
b1100100011000100110000001011110000000000000000 $
b110000001010000010010111100 v
b100101111000000001100000010 X"
b1100100011000100110000001011110000000000000000 J#
#18
b0 "
b1101100011010100110100001100110000000000000000 $
b1010000010010000100000000111 v
b1000000001110000011000000101 X"
b1101100011010100110100001100110000000000000000 J#
#19
b1110100011100100111000001101110000000000000000 $
b1110000011010000110000001011 v
b1100000010110000101000001001 X"
b1110100011100100111000001101110000000000000000 J#
#20
b1111100011110100111100001110110000000000000000 $
b10010000100010001000000001111 v
b10000000011110000111000001101 X"
b1111100011110100111100001110110000000000000000 J#
#21
b110000001000000001000000000000000000000000 $
b10110000101010001010000010011 v
b10100000100110001001000010001 X"
b110000001000000001000000000000000000000000 J#
#22
b1100000010100000100101111000000000100000000 $
b11010000110010001100000010111 v
b11000000101110001011000010101 X"
b1 :#
b1 B#
b1100000010100000100101111000000000100000000 J#
#23
b10100000100100001000000001110000000000000000 $
b11110000111010001110000011011 v
b11100000110110001101000011001 X"
b0 :#
b0 B#
b10100000100100001000000001110000000000000000 J#
#24
b11100000110100001100000010110000000000000000 $
b100010001000010010000000011111 v
b100000000111110001111000011101 X"
b11100000110100001100000010110000000000000000 J#
#25
b100100001000100010000000011110000000000000000 $
b100110001001010010010000100011 v
b100100001000110010001000100001 X"
b100100001000100010000000011110000000000000000 J#
#26
b101100001010100010100000100110000000000000000 $
b101010001010010010100000100111 v
b101000001001110010011000100101 X"
b101100001010100010100000100110000000000000000 J#
#27
b110100001100100011000000101110000000000000000 $
b101110001011010010110000101011 v
b101100001010110010101000101001 X"
b110100001100100011000000101110000000000000000 J#
#28
b111100001110100011100000110110000000000000000 $
b110010001100010011000000101111 v
b110000001011110010111000101101 X"
b111100001110100011100000110110000000000000000 J#
#29
b1000100010000100100000000111110000000000000000 $
b110110001101010011010000110011 v
b110100001100110011001000110001 X"
b1000100010000100100000000111110000000000000000 J#
#30
b1001100010010100100100001000110000000000000000 $
b111010001110010011100000110111 v
b111000001101110011011000110101 X"
b1001100010010100100100001000110000000000000000 J#
#31
b1010100010100100101000001001110000000000000000 $
b111110001111010011110000111011 v
b111100001110110011101000111001 X"
b1010100010100100101000001001110000000000000000 J#
#32
b1011100010110100101100001010110000000000000000 $
b11000000100000000100000000 v
b1000000000011111000111101 X"
b1011100010110100101100001010110000000000000000 J#
#33
b1 "
b1100100011000100110000001011110000000000000000 $
b110000001010000010010111100 v
b100101111000000001100000010 X"
b1100100011000100110000001011110000000000000000 J#
#34
b0 "
b1101100011010100110100001100110000000000000000 $
b1010000010010000100000000111 v
b1000000001110000011000000101 X"
b1101100011010100110100001100110000000000000000 J#
#35
b1110100011100100111000001101110000000000000000 $
b1110000011010000110000001011 v
b1100000010110000101000001001 X"
b1110100011100100111000001101110000000000000000 J#
#36
b1111100011110100111100001110110000000000000000 $
b10010000100010001000000001111 v
b10000000011110000111000001101 X"
b1111100011110100111100001110110000000000000000 J#
#37
b110000001000000001000000000000000000000000 $
b10110000101010001010000010011 v
b10100000100110001001000010001 X"
b110000001000000001000000000000000000000000 J#
#38
b1100000010100000100101111000000000100000000 $
b11010000110010001100000010111 v
b11000000101110001011000010101 X"
b1 :#
b1 B#
b1100000010100000100101111000000000100000000 J#
#39
b10100000100100001000000001110000000000000000 $
b11110000111010001110000011011 v
b11100000110110001101000011001 X"
b0 :#
b0 B#
b10100000100100001000000001110000000000000000 J#
#40
b11100000110100001100000010110000000000000000 $
b100010001000010010000000011111 v
b100000000111110001111000011101 X"
b11100000110100001100000010110000000000000000 J#
#41
b100100001000100010000000011110000000000000000 $
b100110001001010010010000100011 v
b100100001000110010001000100001 X"
b100100001000100010000000011110000000000000000 J#
#42
b101100001010100010100000100110000000000000000 $
b101010001010010010100000100111 v
b101000001001110010011000100101 X"
b101100001010100010100000100110000000000000000 J#
#43
b110100001100100011000000101110000000000000000 $
b101110001011010010110000101011 v
b101100001010110010101000101001 X"
b110100001100100011000000101110000000000000000 J#
#44
b111100001110100011100000110110000000000000000 $
b110010001100010011000000101111 v
b110000001011110010111000101101 X"
b111100001110100011100000110110000000000000000 J#
#45
b1000100010000100100000000111110000000000000000 $
b110110001101010011010000110011 v
b110100001100110011001000110001 X"
b1000100010000100100000000111110000000000000000 J#
#46
b1001100010010100100100001000110000000000000000 $
b111010001110010011100000110111 v
b111000001101110011011000110101 X"
b1001100010010100100100001000110000000000000000 J#
#47
b1010100010100100101000001001110000000000000000 $
b111110001111010011110000111011 v
b111100001110110011101000111001 X"
b1010100010100100101000001001110000000000000000 J#
#48
b1011100010110100101100001010110000000000000000 $
b11000000100000000100000000 v
b1000000000011111000111101 X"
b1011100010110100101100001010110000000000000000 J#
#49
b1 "
b1100100011000100110000001011110000000000000000 $
b110000001010000010010111100 v
b100101111000000001100000010 X"
b1100100011000100110000001011110000000000000000 J#
#50
b0 "
b1101100011010100110100001100110000000000000000 $
b1010000010010000100000000111 v
b1000000001110000011000000101 X"
b1101100011010100110100001100110000000000000000 J#
#51
b1110100011100100111000001101110000000000000000 $
b1110000011010000110000001011 v
b1100000010110000101000001001 X"
b1110100011100100111000001101110000000000000000 J#
#52
b1111100011110100111100001110110000000000000000 $
b10010000100010001000000001111 v
b10000000011110000111000001101 X"
b1111100011110100111100001110110000000000000000 J#
#53
b110000001000000001000000000000000000000000 $
b10110000101010001010000010011 v
b10100000100110001001000010001 X"
b110000001000000001000000000000000000000000 J#
#54
b1100000010100000100101111000000000100000000 $
b11010000110010001100000010111 v
b11000000101110001011000010101 X"
b1 :#
b1 B#
b1100000010100000100101111000000000100000000 J#
#55
b10100000100100001000000001110000000000000000 $
b11110000111010001110000011011 v
b11100000110110001101000011001 X"
b0 :#
b0 B#
b10100000100100001000000001110000000000000000 J#
#56
b11100000110100001100000010110000000000000000 $
b100010001000010010000000011111 v
b100000000111110001111000011101 X"
b11100000110100001100000010110000000000000000 J#
#57
b100100001000100010000000011110000000000000000 $
b100110001001010010010000100011 v
b100100001000110010001000100001 X"
b100100001000100010000000011110000000000000000 J#
#58
b101100001010100010100000100110000000000000000 $
b101010001010010010100000100111 v
b101000001001110010011000100101 X"
b101100001010100010100000100110000000000000000 J#
#59
b110100001100100011000000101110000000000000000 $
b101110001011010010110000101011 v
b101100001010110010101000101001 X"
b110100001100100011000000101110000000000000000 J#
#60
b111100001110100011100000110110000000000000000 $
b110010001100010011000000101111 v
b110000001011110010111000101101 X"
b111100001110100011100000110110000000000000000 J#
#61
b1000100010000100100000000111110000000000000000 $
b110110001101010011010000110011 v
b110100001100110011001000110001 X"
b1000100010000100100000000111110000000000000000 J#
#62
b1001100010010100100100001000110000000000000000 $
b111010001110010011100000110111 v
b111000001101110011011000110101 X"
b1001100010010100100100001000110000000000000000 J#
#63
b1010100010100100101000001001110000000000000000 $
b111110001111010011110000111011 v
b111100001110110011101000111001 X"
b1010100010100100101000001001110000000000000000 J#
#64
b1011100010110100101100001010110000000000000000 $
b11000000100000000100000000 v
b1000000000011111000111101 X"
b1011100010110100101100001010110000000000000000 J#
#65
b1 "
b1100100011000100110000001011110000000000000000 $
b110000001010000010010111100 v
b100101111000000001100000010 X"
b1100100011000100110000001011110000000000000000 J#
#66
b0 "
b1101100011010100110100001100110000000000000000 $
b1010000010010000100000000111 v
b1000000001110000011000000101 X"
b1101100011010100110100001100110000000000000000 J#
#67
b1110100011100100111000001101110000000000000000 $
b1110000011010000110000001011 v
b1100000010110000101000001001 X"
b1110100011100100111000001101110000000000000000 J#
#68
b1111100011110100111100001110110000000000000000 $
b10010000100010001000000001111 v
b10000000011110000111000001101 X"
b1111100011110100111100001110110000000000000000 J#
#69
b110000001000000001000000000000000000000000 $
b10110000101010001010000010011 v
b10100000100110001001000010001 X"
b110000001000000001000000000000000000000000 J#
#70
b1100000010100000100101111000000000100000000 $
b11010000110010001100000010111 v
b11000000101110001011000010101 X"
b1 :#
b1 B#
b1100000010100000100101111000000000100000000 J#
#71
b10100000100100001000000001110000000000000000 $
b11110000111010001110000011011 v
b11100000110110001101000011001 X"
b0 :#
b0 B#
b10100000100100001000000001110000000000000000 J#
#72
b11100000110100001100000010110000000000000000 $
b100010001000010010000000011111 v
b100000000111110001111000011101 X"
b11100000110100001100000010110000000000000000 J#
#73
b100100001000100010000000011110000000000000000 $
b100110001001010010010000100011 v
b100100001000110010001000100001 X"
b100100001000100010000000011110000000000000000 J#
#74
b101100001010100010100000100110000000000000000 $
b101010001010010010100000100111 v
b101000001001110010011000100101 X"
b101100001010100010100000100110000000000000000 J#
#75
b110100001100100011000000101110000000000000000 $
b101110001011010010110000101011 v
b101100001010110010101000101001 X"
b110100001100100011000000101110000000000000000 J#
#76
b111100001110100011100000110110000000000000000 $
b110010001100010011000000101111 v
b110000001011110010111000101101 X"
b111100001110100011100000110110000000000000000 J#
#77
b1000100010000100100000000111110000000000000000 $
b110110001101010011010000110011 v
b110100001100110011001000110001 X"
b1000100010000100100000000111110000000000000000 J#
#78
b1001100010010100100100001000110000000000000000 $
b111010001110010011100000110111 v
b111000001101110011011000110101 X"
b1001100010010100100100001000110000000000000000 J#
#79
b1010100010100100101000001001110000000000000000 $
b111110001111010011110000111011 v
b111100001110110011101000111001 X"
b1010100010100100101000001001110000000000000000 J#
#80
b1011100010110100101100001010110000000000000000 $
b11000000100000000100000000 v
b1000000000011111000111101 X"
b1011100010110100101100001010110000000000000000 J#
#81
b1 "
b1100100011000100110000001011110000000000000000 $
b110000001010000010010111100 v
b100101111000000001100000010 X"
b1100100011000100110000001011110000000000000000 J#
#82
b0 "
b1101100011010100110100001100110000000000000000 $
b1010000010010000100000000111 v
b1000000001110000011000000101 X"
b1101100011010100110100001100110000000000000000 J#
#83
b1110100011100100111000001101110000000000000000 $
b1110000011010000110000001011 v
b1100000010110000101000001001 X"
b1110100011100100111000001101110000000000000000 J#
#84
b1111100011110100111100001110110000000000000000 $
b10010000100010001000000001111 v
b10000000011110000111000001101 X"
b1111100011110100111100001110110000000000000000 J#
#85
b110000001000000001000000000000000000000000 $
b10110000101010001010000010011 v
b10100000100110001001000010001 X"
b110000001000000001000000000000000000000000 J#
#86
b1100000010100000100101111000000000100000000 $
b11010000110010001100000010111 v
b11000000101110001011000010101 X"
b1 :#
b1 B#
b1100000010100000100101111000000000100000000 J#
#87
b10100000100100001000000001110000000000000000 $
b11110000111010001110000011011 v
b11100000110110001101000011001 X"
b0 :#
b0 B#
b10100000100100001000000001110000000000000000 J#
#88
b11100000110100001100000010110000000000000000 $
b100010001000010010000000011111 v
b100000000111110001111000011101 X"
b11100000110100001100000010110000000000000000 J#
#89
b100100001000100010000000011110000000000000000 $
b100110001001010010010000100011 v
b100100001000110010001000100001 X"
b100100001000100010000000011110000000000000000 J#
#90
b101100001010100010100000100110000000000000000 $
b101010001010010010100000100111 v
b101000001001110010011000100101 X"
b101100001010100010100000100110000000000000000 J#
#91
b110100001100100011000000101110000000000000000 $
b101110001011010010110000101011 v
b101100001010110010101000101001 X"
b110100001100100011000000101110000000000000000 J#
#92
b111100001110100011100000110110000000000000000 $
b110010001100010011000000101111 v
b110000001011110010111000101101 X"
b111100001110100011100000110110000000000000000 J#
#93
b1000100010000100100000000111110000000000000000 $
b110110001101010011010000110011 v
b110100001100110011001000110001 X"
b1000100010000100100000000111110000000000000000 J#
#94
b1001100010010100100100001000110000000000000000 $
b111010001110010011100000110111 v
b111000001101110011011000110101 X"
b1001100010010100100100001000110000000000000000 J#
#95
b1010100010100100101000001001110000000000000000 $
b111110001111010011110000111011 v
b111100001110110011101000111001 X"
b1010100010100100101000001001110000000000000000 J#
#96
b1011100010110100101100001010110000000000000000 $
b11000000100000000100000000 v
b1000000000011111000111101 X"
b1011100010110100101100001010110000000000000000 J#
#97
b1 "
b1100100011000100110000001011110000000000000000 $
b110000001010000010010111100 v
b100101111000000001100000010 X"
b1100100011000100110000001011110000000000000000 J#
#98
b0 "
b1101100011010100110100001100110000000000000000 $
b1010000010010000100000000111 v
b1000000001110000011000000101 X"
b1101100011010100110100001100110000000000000000 J#
#99
b1110100011100100111000001101110000000000000000 $
b1110000011010000110000001011 v
b1100000010110000101000001001 X"
b1110100011100100111000001101110000000000000000 J#
#100
b1111100011110100111100001110110000000000000000 $
b10010000100010001000000001111 v
b10000000011110000111000001101 X"
b1111100011110100111100001110110000000000000000 J#
#101
b110000001000000001000000000000000000000000 $
b10110000101010001010000010011 v
b10100000100110001001000010001 X"
b110000001000000001000000000000000000000000 J#
#102
b1100000010100000100101111000000000100000000 $
b11010000110010001100000010111 v
b11000000101110001011000010101 X"
b1 :#
b1 B#
b1100000010100000100101111000000000100000000 J#
#103
b10100000100100001000000001110000000000000000 $
b11110000111010001110000011011 v
b11100000110110001101000011001 X"
b0 :#
b0 B#
b10100000100100001000000001110000000000000000 J#
#104
b11100000110100001100000010110000000000000000 $
b100010001000010010000000011111 v
b100000000111110001111000011101 X"
b11100000110100001100000010110000000000000000 J#
#105
b100100001000100010000000011110000000000000000 $
b100110001001010010010000100011 v
b100100001000110010001000100001 X"
b100100001000100010000000011110000000000000000 J#
#106
b101100001010100010100000100110000000000000000 $
b101010001010010010100000100111 v
b101000001001110010011000100101 X"
b101100001010100010100000100110000000000000000 J#
#107
b110100001100100011000000101110000000000000000 $
b101110001011010010110000101011 v
b101100001010110010101000101001 X"
b110100001100100011000000101110000000000000000 J#
#108
b111100001110100011100000110110000000000000000 $
b110010001100010011000000101111 v
b110000001011110010111000101101 X"
b111100001110100011100000110110000000000000000 J#
#109
b1000100010000100100000000111110000000000000000 $
b110110001101010011010000110011 v
b110100001100110011001000110001 X"
b1000100010000100100000000111110000000000000000 J#
#110
b1001100010010100100100001000110000000000000000 $
b111010001110010011100000110111 v
b111000001101110011011000110101 X"
b1001100010010100100100001000110000000000000000 J#
#111
b1010100010100100101000001001110000000000000000 $
b111110001111010011110000111011 v
b111100001110110011101000111001 X"
b1010100010100100101000001001110000000000000000 J#
#112
b1011100010110100101100001010110000000000000000 $
b11000000100000000100000000 v
b1000000000011111000111101 X"
b1011100010110100101100001010110000000000000000 J#
#113
b1 "
b1100100011000100110000001011110000000000000000 $
b110000001010000010010111100 v
b100101111000000001100000010 X"
b1100100011000100110000001011110000000000000000 J#
#114
b0 "
b1101100011010100110100001100110000000000000000 $
b1010000010010000100000000111 v
b1000000001110000011000000101 X"
b1101100011010100110100001100110000000000000000 J#
#115
b1110100011100100111000001101110000000000000000 $
b1110000011010000110000001011 v
b1100000010110000101000001001 X"
b1110100011100100111000001101110000000000000000 J#
#116
b1111100011110100111100001110110000000000000000 $
b10010000100010001000000001111 v
b10000000011110000111000001101 X"
b1111100011110100111100001110110000000000000000 J#
#117
b110000001000000001000000000000000000000000 $
b10110000101010001010000010011 v
b10100000100110001001000010001 X"
b110000001000000001000000000000000000000000 J#
#118
b1100000010100000100101111000000000100000000 $
b11010000110010001100000010111 v
b11000000101110001011000010101 X"
b1 :#
b1 B#
b1100000010100000100101111000000000100000000 J#
#119
b10100000100100001000000001110000000000000000 $
b11110000111010001110000011011 v
b11100000110110001101000011001 X"
b0 :#
b0 B#
b10100000100100001000000001110000000000000000 J#
#120
b11100000110100001100000010110000000000000000 $
b100010001000010010000000011111 v
b100000000111110001111000011101 X"
b11100000110100001100000010110000000000000000 J#
#121
b100100001000100010000000011110000000000000000 $
b100110001001010010010000100011 v
b100100001000110010001000100001 X"
b100100001000100010000000011110000000000000000 J#
#122
b101100001010100010100000100110000000000000000 $
b101010001010010010100000100111 v
b101000001001110010011000100101 X"
b101100001010100010100000100110000000000000000 J#
#123
b110100001100100011000000101110000000000000000 $
b101110001011010010110000101011 v
b101100001010110010101000101001 X"
b110100001100100011000000101110000000000000000 J#
#124
b111100001110100011100000110110000000000000000 $
b110010001100010011000000101111 v
b110000001011110010111000101101 X"
b111100001110100011100000110110000000000000000 J#
#125
b1000100010000100100000000111110000000000000000 $
b110110001101010011010000110011 v
b110100001100110011001000110001 X"
b1000100010000100100000000111110000000000000000 J#
#126
b1001100010010100100100001000110000000000000000 $
b111010001110010011100000110111 v
b111000001101110011011000110101 X"
b1001100010010100100100001000110000000000000000 J#
#127
b1010100010100100101000001001110000000000000000 $
b111110001111010011110000111011 v
b111100001110110011101000111001 X"
b1010100010100100101000001001110000000000000000 J#
#128
b1011100010110100101100001010110000000000000000 $
b11000000100000000100000000 v
b1000000000011111000111101 X"
b1011100010110100101100001010110000000000000000 J#
#129
b1 "
b1100100011000100110000001011110000000000000000 $
b110000001010000010010111100 v
b100101111000000001100000010 X"
b1100100011000100110000001011110000000000000000 J#
#130
b0 "
b1101100011010100110100001100110000000000000000 $
b1010000010010000100000000111 v
b1000000001110000011000000101 X"
b1101100011010100110100001100110000000000000000 J#
#131
b1110100011100100111000001101110000000000000000 $
b1110000011010000110000001011 v
b1100000010110000101000001001 X"
b1110100011100100111000001101110000000000000000 J#
#132
b1111100011110100111100001110110000000000000000 $
b10010000100010001000000001111 v
b10000000011110000111000001101 X"
b1111100011110100111100001110110000000000000000 J#
#133
b110000001000000001000000000000000000000000 $
b10110000101010001010000010011 v
b10100000100110001001000010001 X"
b110000001000000001000000000000000000000000 J#
#134
b1100000010100000100101111000000000100000000 $
b11010000110010001100000010111 v
b11000000101110001011000010101 X"
b1 :#
b1 B#
b1100000010100000100101111000000000100000000 J#
#135
b10100000100100001000000001110000000000000000 $
b11110000111010001110000011011 v
b11100000110110001101000011001 X"
b0 :#
b0 B#
b10100000100100001000000001110000000000000000 J#
#136
b11100000110100001100000010110000000000000000 $
b100010001000010010000000011111 v
b100000000111110001111000011101 X"
b11100000110100001100000010110000000000000000 J#
#137
b100100001000100010000000011110000000000000000 $
b100110001001010010010000100011 v
b100100001000110010001000100001 X"
b100100001000100010000000011110000000000000000 J#
#138
b101100001010100010100000100110000000000000000 $
b101010001010010010100000100111 v
b101000001001110010011000100101 X"
b101100001010100010100000100110000000000000000 J#
#139
b110100001100100011000000101110000000000000000 $
b101110001011010010110000101011 v
b101100001010110010101000101001 X"
b110100001100100011000000101110000000000000000 J#
#140
b111100001110100011100000110110000000000000000 $
b110010001100010011000000101111 v
b110000001011110010111000101101 X"
b111100001110100011100000110110000000000000000 J#
#141
b1000100010000100100000000111110000000000000000 $
b110110001101010011010000110011 v
b110100001100110011001000110001 X"
b1000100010000100100000000111110000000000000000 J#
#142
b1001100010010100100100001000110000000000000000 $
b111010001110010011100000110111 v
b111000001101110011011000110101 X"
b1001100010010100100100001000110000000000000000 J#
#143
b1010100010100100101000001001110000000000000000 $
b111110001111010011110000111011 v
b111100001110110011101000111001 X"
b1010100010100100101000001001110000000000000000 J#
#144
b1011100010110100101100001010110000000000000000 $
b11000000100000000100000000 v
b1000000000011111000111101 X"
b1011100010110100101100001010110000000000000000 J#
#145
b1 "
b1100100011000100110000001011110000000000000000 $
b110000001010000010010111100 v
b100101111000000001100000010 X"
b1100100011000100110000001011110000000000000000 J#
#146
b0 "
b1101100011010100110100001100110000000000000000 $
b1010000010010000100000000111 v
b1000000001110000011000000101 X"
b1101100011010100110100001100110000000000000000 J#
#147
b1110100011100100111000001101110000000000000000 $
b1110000011010000110000001011 v
b1100000010110000101000001001 X"
b1110100011100100111000001101110000000000000000 J#
#148
b1111100011110100111100001110110000000000000000 $
b10010000100010001000000001111 v
b10000000011110000111000001101 X"
b1111100011110100111100001110110000000000000000 J#
#149
b110000001000000001000000000000000000000000 $
b10110000101010001010000010011 v
b10100000100110001001000010001 X"
b110000001000000001000000000000000000000000 J#
#150
b1100000010100000100101111000000000100000000 $
b11010000110010001100000010111 v
b11000000101110001011000010101 X"
b1 :#
b1 B#
b1100000010100000100101111000000000100000000 J#
#151
b10100000100100001000000001110000000000000000 $
b11110000111010001110000011011 v
b11100000110110001101000011001 X"
b0 :#
b0 B#
b10100000100100001000000001110000000000000000 J#
#152
b11100000110100001100000010110000000000000000 $
b100010001000010010000000011111 v
b100000000111110001111000011101 X"
b11100000110100001100000010110000000000000000 J#
#153
b100100001000100010000000011110000000000000000 $
b100110001001010010010000100011 v
b100100001000110010001000100001 X"
b100100001000100010000000011110000000000000000 J#
#154
b101100001010100010100000100110000000000000000 $
b101010001010010010100000100111 v
b101000001001110010011000100101 X"
b101100001010100010100000100110000000000000000 J#
#155
b110100001100100011000000101110000000000000000 $
b101110001011010010110000101011 v
b101100001010110010101000101001 X"
b110100001100100011000000101110000000000000000 J#
#156
b111100001110100011100000110110000000000000000 $
b110010001100010011000000101111 v
b110000001011110010111000101101 X"
b111100001110100011100000110110000000000000000 J#
#157
b1000100010000100100000000111110000000000000000 $
b110110001101010011010000110011 v
b110100001100110011001000110001 X"
b1000100010000100100000000111110000000000000000 J#
#158
b1001100010010100100100001000110000000000000000 $
b111010001110010011100000110111 v
b111000001101110011011000110101 X"
b1001100010010100100100001000110000000000000000 J#
#159
b1010100010100100101000001001110000000000000000 $
b111110001111010011110000111011 v
b111100001110110011101000111001 X"
b1010100010100100101000001001110000000000000000 J#
#160
b1011100010110100101100001010110000000000000000 $
b11000000100000000100000000 v
b1000000000011111000111101 X"
b1011100010110100101100001010110000000000000000 J#
#161
b1 "
b1100100011000100110000001011110000000000000000 $
b110000001010000010010111100 v
b100101111000000001100000010 X"
b1100100011000100110000001011110000000000000000 J#
#162
b0 "
b1101100011010100110100001100110000000000000000 $
b1010000010010000100000000111 v
b1000000001110000011000000101 X"
b1101100011010100110100001100110000000000000000 J#
#163
b1110100011100100111000001101110000000000000000 $
b1110000011010000110000001011 v
b1100000010110000101000001001 X"
b1110100011100100111000001101110000000000000000 J#
#164
b1111100011110100111100001110110000000000000000 $
b10010000100010001000000001111 v
b10000000011110000111000001101 X"
b1111100011110100111100001110110000000000000000 J#
#165
b110000001000000001000000000000000000000000 $
b10110000101010001010000010011 v
b10100000100110001001000010001 X"
b110000001000000001000000000000000000000000 J#
#166
b1100000010100000100101111000000000100000000 $
b11010000110010001100000010111 v
b11000000101110001011000010101 X"
b1 :#
b1 B#
b1100000010100000100101111000000000100000000 J#
#167
b10100000100100001000000001110000000000000000 $
b11110000111010001110000011011 v
b11100000110110001101000011001 X"
b0 :#
b0 B#
b10100000100100001000000001110000000000000000 J#
#168
b11100000110100001100000010110000000000000000 $
b100010001000010010000000011111 v
b100000000111110001111000011101 X"
b11100000110100001100000010110000000000000000 J#
#169
b100100001000100010000000011110000000000000000 $
b100110001001010010010000100011 v
b100100001000110010001000100001 X"
b100100001000100010000000011110000000000000000 J#
#170
b101100001010100010100000100110000000000000000 $
b101010001010010010100000100111 v
b101000001001110010011000100101 X"
b101100001010100010100000100110000000000000000 J#
#171
b110100001100100011000000101110000000000000000 $
b101110001011010010110000101011 v
b101100001010110010101000101001 X"
b110100001100100011000000101110000000000000000 J#
#172
b111100001110100011100000110110000000000000000 $
b110010001100010011000000101111 v
b110000001011110010111000101101 X"
b111100001110100011100000110110000000000000000 J#
#173
b1000100010000100100000000111110000000000000000 $
b110110001101010011010000110011 v
b110100001100110011001000110001 X"
b1000100010000100100000000111110000000000000000 J#
#174
b1001100010010100100100001000110000000000000000 $
b111010001110010011100000110111 v
b111000001101110011011000110101 X"
b1001100010010100100100001000110000000000000000 J#
#175
b1010100010100100101000001001110000000000000000 $
b111110001111010011110000111011 v
b111100001110110011101000111001 X"
b1010100010100100101000001001110000000000000000 J#
#176
b1011100010110100101100001010110000000000000000 $
b11000000100000000100000000 v
b1000000000011111000111101 X"
b1011100010110100101100001010110000000000000000 J#
#177
b1 "
b1100100011000100110000001011110000000000000000 $
b110000001010000010010111100 v
b100101111000000001100000010 X"
b1100100011000100110000001011110000000000000000 J#
#178
b0 "
b1101100011010100110100001100110000000000000000 $
b1010000010010000100000000111 v
b1000000001110000011000000101 X"
b1101100011010100110100001100110000000000000000 J#
#179
b1110100011100100111000001101110000000000000000 $
b1110000011010000110000001011 v
b1100000010110000101000001001 X"
b1110100011100100111000001101110000000000000000 J#
#180
b1111100011110100111100001110110000000000000000 $
b10010000100010001000000001111 v
b10000000011110000111000001101 X"
b1111100011110100111100001110110000000000000000 J#
#181
b110000001000000001000000000000000000000000 $
b10110000101010001010000010011 v
b10100000100110001001000010001 X"
b110000001000000001000000000000000000000000 J#
#182
b1100000010100000100101111000000000100000000 $
b11010000110010001100000010111 v
b11000000101110001011000010101 X"
b1 :#
b1 B#
b1100000010100000100101111000000000100000000 J#
#183
b10100000100100001000000001110000000000000000 $
b11110000111010001110000011011 v
b11100000110110001101000011001 X"
b0 :#
b0 B#
b10100000100100001000000001110000000000000000 J#
#184
b11100000110100001100000010110000000000000000 $
b100010001000010010000000011111 v
b100000000111110001111000011101 X"
b11100000110100001100000010110000000000000000 J#
#185
b100100001000100010000000011110000000000000000 $
b100110001001010010010000100011 v
b100100001000110010001000100001 X"
b100100001000100010000000011110000000000000000 J#
#186
b101100001010100010100000100110000000000000000 $
b101010001010010010100000100111 v
b101000001001110010011000100101 X"
b101100001010100010100000100110000000000000000 J#
#187
b110100001100100011000000101110000000000000000 $
b101110001011010010110000101011 v
b101100001010110010101000101001 X"
b110100001100100011000000101110000000000000000 J#
#188
b111100001110100011100000110110000000000000000 $
b110010001100010011000000101111 v
b110000001011110010111000101101 X"
b111100001110100011100000110110000000000000000 J#
#189
b1000100010000100100000000111110000000000000000 $
b110110001101010011010000110011 v
b110100001100110011001000110001 X"
b1000100010000100100000000111110000000000000000 J#
#190
b1001100010010100100100001000110000000000000000 $
b111010001110010011100000110111 v
b111000001101110011011000110101 X"
b1001100010010100100100001000110000000000000000 J#
#191
b1010100010100100101000001001110000000000000000 $
b111110001111010011110000111011 v
b111100001110110011101000111001 X"
b1010100010100100101000001001110000000000000000 J#
#192
b1011100010110100101100001010110000000000000000 $
b11000000100000000100000000 v
b1000000000011111000111101 X"
b1011100010110100101100001010110000000000000000 J#
#193
b1 "
b1100100011000100110000001011110000000000000000 $
b110000001010000010010111100 v
b100101111000000001100000010 X"
b1100100011000100110000001011110000000000000000 J#
