DEMO/k716_ddr3_read_write/.Xil/Vivado-18628-FXTVWR85EI30285/hw_ila_data_1/zip_work/waveform.vcd
$date
        2020-Aug-01 16:27:43
$end
$version
        Vivado v2019.2 (64-bit)
$end
$timescale
        1ps
$end
$scope module dut $end
$var reg 3 " app_cmd [2:0] $end
$var reg 256 % app_wdf_data [255:0] $end
$var reg 29 i# app_addr [28:0] $end
$var reg 256 ($ app_rd_data [255:0] $end
$var reg 256 l& app_rd_data_reg [255:0] $end
$var reg 1 R) app_en $end
$var reg 1 S) app_rd_data_end $end
$var reg 1 T) app_rd_data_valid $end
$var reg 1 U) app_rdy $end
$var reg 1 V) app_wdf_end $end
$var reg 1 W) app_wdf_rdy $end
$var reg 1 X) app_wdf_wren $end
$var reg 1 Y) ui_clk $end
$var reg 1 Z) _TRIGGER $end
$var reg 1 [) _WINDOW $end
$var reg 1 \) _GAP $end
$upscope $end
$enddefinitions $end
#0
$dumpvars
b1 "
b0 %
b1000011000000 i#
b1101001000000000110100100000000011010010000000001101001000000000110100100000000011010010000000001101001000000000110100100000000011010010000000001101001000000000110100100000000011010010000000001101001000000000110100100000000011010010000000001101001 ($
b1100110000000000110011000000000011001100000000001100110000000000110011000000000011001100000000001100110000000000110011000000000011001100000000001100110000000000110011000000000011001100000000001100110000000000110011000000000011001100000000001100110 l&
0R)
1S)
1T)
0U)
0V)
1W)
0X)
1Y)
0Z)
1[)
0\)
$end
#1
b1101010000000000110101000000000011010100000000001101010000000000110101000000000011010100000000001101010000000000110101000000000011010100000000001101010000000000110101000000000011010100000000001101010000000000110101000000000011010100000000001101010 ($
b1101001000000000110100100000000011010010000000001101001000000000110100100000000011010010000000001101001000000000110100100000000011010010000000001101001000000000110100100000000011010010000000001101001000000000110100100000000011010010000000001101001 l&
#2
b1101011000000000110101100000000011010110000000001101011000000000110101100000000011010110000000001101011000000000110101100000000011010110000000001101011000000000110101100000000011010110000000001101011000000000110101100000000011010110000000001101011 ($
b1101010000000000110101000000000011010100000000001101010000000000110101000000000011010100000000001101010000000000110101000000000011010100000000001101010000000000110101000000000011010100000000001101010000000000110101000000000011010100000000001101010 l&
1U)
#3
b1000011100000 i#
b1101100000000000110110000000000011011000000000001101100000000000110110000000000011011000000000001101100000000000110110000000000011011000000000001101100000000000110110000000000011011000000000001101100000000000110110000000000011011000000000001101100 ($
b1101011000000000110101100000000011010110000000001101011000000000110101100000000011010110000000001101011000000000110101100000000011010110000000001101011000000000110101100000000011010110000000001101011000000000110101100000000011010110000000001101011 l&
1R)
#4
b1000100000000 i#
b1101101000000000110110100000000011011010000000001101101000000000110110100000000011011010000000001101101000000000110110100000000011011010000000001101101000000000110110100000000011011010000000001101101000000000110110100000000011011010000000001101101 ($
b1101100000000000110110000000000011011000000000001101100000000000110110000000000011011000000000001101100000000000110110000000000011011000000000001101100000000000110110000000000011011000000000001101100000000000110110000000000011011000000000001101100 l&
#5
b1000100100000 i#
b1101110000000000110111000000000011011100000000001101110000000000110111000000000011011100000000001101110000000000110111000000000011011100000000001101110000000000110111000000000011011100000000001101110000000000110111000000000011011100000000001101110 ($
b1101101000000000110110100000000011011010000000001101101000000000110110100000000011011010000000001101101000000000110110100000000011011010000000001101101000000000110110100000000011011010000000001101101000000000110110100000000011011010000000001101101 l&
#6
b1000101000000 i#
b1101111000000000110111100000000011011110000000001101111000000000110111100000000011011110000000001101111000000000110111100000000011011110000000001101111000000000110111100000000011011110000000001101111000000000110111100000000011011110000000001101111 ($
b1101110000000000110111000000000011011100000000001101110000000000110111000000000011011100000000001101110000000000110111000000000011011100000000001101110000000000110111000000000011011100000000001101110000000000110111000000000011011100000000001101110 l&
#7
b1000101100000 i#
b1110000000000000111000000000000011100000000000001110000000000000111000000000000011100000000000001110000000000000111000000000000011100000000000001110000000000000111000000000000011100000000000001110000000000000111000000000000011100000000000001110000 ($
b1101111000000000110111100000000011011110000000001101111000000000110111100000000011011110000000001101111000000000110111100000000011011110000000001101111000000000110111100000000011011110000000001101111000000000110111100000000011011110000000001101111 l&
#8
b1000110000000 i#
b1110001000000000111000100000000011100010000000001110001000000000111000100000000011100010000000001110001000000000111000100000000011100010000000001110001000000000111000100000000011100010000000001110001000000000111000100000000011100010000000001110001 ($
b1110000000000000111000000000000011100000000000001110000000000000111000000000000011100000000000001110000000000000111000000000000011100000000000001110000000000000111000000000000011100000000000001110000000000000111000000000000011100000000000001110000 l&
#9
b1000110100000 i#
b1110010000000000111001000000000011100100000000001110010000000000111001000000000011100100000000001110010000000000111001000000000011100100000000001110010000000000111001000000000011100100000000001110010000000000111001000000000011100100000000001110010 ($
b1110001000000000111000100000000011100010000000001110001000000000111000100000000011100010000000001110001000000000111000100000000011100010000000001110001000000000111000100000000011100010000000001110001000000000111000100000000011100010000000001110001 l&
#10
b1000111000000 i#
b1010011000000000101001100000000010100110000000001010011000000000101001100000000010100110000000001010011000000000101001100000000010100110000000001010011000000000101001100000000010100110000000001010011000000000101001100000000010100110000000001010011 ($
b1110010000000000111001000000000011100100000000001110010000000000111001000000000011100100000000001110010000000000111001000000000011100100000000001110010000000000111001000000000011100100000000001110010000000000111001000000000011100100000000001110010 l&
0T)
#11
b1000111100000 i#
b1110011000000000111001100000000011100110000000001110011000000000111001100000000011100110000000001110011000000000111001100000000011100110000000001110011000000000111001100000000011100110000000001110011000000000111001100000000011100110000000001110011 ($
1T)
#12
b1001000000000 i#
b1110100000000000111010000000000011101000000000001110100000000000111010000000000011101000000000001110100000000000111010000000000011101000000000001110100000000000111010000000000011101000000000001110100000000000111010000000000011101000000000001110100 ($
b1110011000000000111001100000000011100110000000001110011000000000111001100000000011100110000000001110011000000000111001100000000011100110000000001110011000000000111001100000000011100110000000001110011000000000111001100000000011100110000000001110011 l&
#13
b1001000100000 i#
b1010101000000000101010100000000010101010000000001010101000000000101010100000000010101010000000001010101000000000101010100000000010101010000000001010101000000000101010100000000010101010000000001010101000000000101010100000000010101010000000001010101 ($
b1110100000000000111010000000000011101000000000001110100000000000111010000000000011101000000000001110100000000000111010000000000011101000000000001110100000000000111010000000000011101000000000001110100000000000111010000000000011101000000000001110100 l&
0T)
#14
b1001001000000 i#
#15
b1001001100000 i#
#16
b1001010000000 i#
#17
b1001010100000 i#
#18
b1001011000000 i#
#19
b1001011100000 i#
b1111000000000000111100000000000011110000000000001111000000000000111100000000000011110000000000001111000000000000111100000000000011110000000000001111000000000000111100000000000011110000000000001111000000000000111100000000000011110000000000001111000 ($
1T)
#20
b1001100000000 i#
b1111001000000000111100100000000011110010000000001111001000000000111100100000000011110010000000001111001000000000111100100000000011110010000000001111001000000000111100100000000011110010000000001111001000000000111100100000000011110010000000001111001 ($
b1111000000000000111100000000000011110000000000001111000000000000111100000000000011110000000000001111000000000000111100000000000011110000000000001111000000000000111100000000000011110000000000001111000000000000111100000000000011110000000000001111000 l&
#21
b1001100100000 i#
b1111010000000000111101000000000011110100000000001111010000000000111101000000000011110100000000001111010000000000111101000000000011110100000000001111010000000000111101000000000011110100000000001111010000000000111101000000000011110100000000001111010 ($
b1111001000000000111100100000000011110010000000001111001000000000111100100000000011110010000000001111001000000000111100100000000011110010000000001111001000000000111100100000000011110010000000001111001000000000111100100000000011110010000000001111001 l&
#22
b1001101000000 i#
b1011000000000000101100000000000010110000000000001011000000000000101100000000000010110000000000001011000000000000101100000000000010110000000000001011000000000000101100000000000010110000000000001011000000000000101100000000000010110000000000001011000 ($
b1111010000000000111101000000000011110100000000001111010000000000111101000000000011110100000000001111010000000000111101000000000011110100000000001111010000000000111101000000000011110100000000001111010000000000111101000000000011110100000000001111010 l&
0T)
#23
b1001101100000 i#
b1111011000000000111101100000000011110110000000001111011000000000111101100000000011110110000000001111011000000000111101100000000011110110000000001111011000000000111101100000000011110110000000001111011000000000111101100000000011110110000000001111011 ($
1T)
#24
b1001110000000 i#
b1111100000000000111110000000000011111000000000001111100000000000111110000000000011111000000000001111100000000000111110000000000011111000000000001111100000000000111110000000000011111000000000001111100000000000111110000000000011111000000000001111100 ($
b1111011000000000111101100000000011110110000000001111011000000000111101100000000011110110000000001111011000000000111101100000000011110110000000001111011000000000111101100000000011110110000000001111011000000000111101100000000011110110000000001111011 l&
#25
b1001110100000 i#
b1111101000000000111110100000000011111010000000001111101000000000111110100000000011111010000000001111101000000000111110100000000011111010000000001111101000000000111110100000000011111010000000001111101000000000111110100000000011111010000000001111101 ($
b1111100000000000111110000000000011111000000000001111100000000000111110000000000011111000000000001111100000000000111110000000000011111000000000001111100000000000111110000000000011111000000000001111100000000000111110000000000011111000000000001111100 l&
#26
b1001111000000 i#
b1111110000000000111111000000000011111100000000001111110000000000111111000000000011111100000000001111110000000000111111000000000011111100000000001111110000000000111111000000000011111100000000001111110000000000111111000000000011111100000000001111110 ($
b1111101000000000111110100000000011111010000000001111101000000000111110100000000011111010000000001111101000000000111110100000000011111010000000001111101000000000111110100000000011111010000000001111101000000000111110100000000011111010000000001111101 l&
#27
b1001111100000 i#
b1111111000000000111111100000000011111110000000001111111000000000111111100000000011111110000000001111111000000000111111100000000011111110000000001111111000000000111111100000000011111110000000001111111000000000111111100000000011111110000000001111111 ($
b1111110000000000111111000000000011111100000000001111110000000000111111000000000011111100000000001111110000000000111111000000000011111100000000001111110000000000111111000000000011111100000000001111110000000000111111000000000011111100000000001111110 l&
#28
b1010000000000 i#
b10000000000000001000000000000000100000000000000010000000000000001000000000000000100000000000000010000000000000001000000000000000100000000000000010000000000000001000000000000000100000000000000010000000000000001000000000000000100000000000000010000000 ($
b1111111000000000111111100000000011111110000000001111111000000000111111100000000011111110000000001111111000000000111111100000000011111110000000001111111000000000111111100000000011111110000000001111111000000000111111100000000011111110000000001111111 l&
#29
b1010000100000 i#
b10000001000000001000000100000000100000010000000010000001000000001000000100000000100000010000000010000001000000001000000100000000100000010000000010000001000000001000000100000000100000010000000010000001000000001000000100000000100000010000000010000001 ($
b10000000000000001000000000000000100000000000000010000000000000001000000000000000100000000000000010000000000000001000000000000000100000000000000010000000000000001000000000000000100000000000000010000000000000001000000000000000100000000000000010000000 l&
#30
b1010001000000 i#
b10000010000000001000001000000000100000100000000010000010000000001000001000000000100000100000000010000010000000001000001000000000100000100000000010000010000000001000001000000000100000100000000010000010000000001000001000000000100000100000000010000010 ($
b10000001000000001000000100000000100000010000000010000001000000001000000100000000100000010000000010000001000000001000000100000000100000010000000010000001000000001000000100000000100000010000000010000001000000001000000100000000100000010000000010000001 l&
#31
b1010001100000 i#
b10000011000000001000001100000000100000110000000010000011000000001000001100000000100000110000000010000011000000001000001100000000100000110000000010000011000000001000001100000000100000110000000010000011000000001000001100000000100000110000000010000011 ($
b10000010000000001000001000000000100000100000000010000010000000001000001000000000100000100000000010000010000000001000001000000000100000100000000010000010000000001000001000000000100000100000000010000010000000001000001000000000100000100000000010000010 l&
#32
b1010010000000 i#
b10000100000000001000010000000000100001000000000010000100000000001000010000000000100001000000000010000100000000001000010000000000100001000000000010000100000000001000010000000000100001000000000010000100000000001000010000000000100001000000000010000100 ($
b10000011000000001000001100000000100000110000000010000011000000001000001100000000100000110000000010000011000000001000001100000000100000110000000010000011000000001000001100000000100000110000000010000011000000001000001100000000100000110000000010000011 l&
#33
b1010010100000 i#
b10000101000000001000010100000000100001010000000010000101000000001000010100000000100001010000000010000101000000001000010100000000100001010000000010000101000000001000010100000000100001010000000010000101000000001000010100000000100001010000000010000101 ($
b10000100000000001000010000000000100001000000000010000100000000001000010000000000100001000000000010000100000000001000010000000000100001000000000010000100000000001000010000000000100001000000000010000100000000001000010000000000100001000000000010000100 l&
0U)
#34
b10000110000000001000011000000000100001100000000010000110000000001000011000000000100001100000000010000110000000001000011000000000100001100000000010000110000000001000011000000000100001100000000010000110000000001000011000000000100001100000000010000110 ($
b10000101000000001000010100000000100001010000000010000101000000001000010100000000100001010000000010000101000000001000010100000000100001010000000010000101000000001000010100000000100001010000000010000101000000001000010100000000100001010000000010000101 l&
0R)
#35
b10000111000000001000011100000000100001110000000010000111000000001000011100000000100001110000000010000111000000001000011100000000100001110000000010000111000000001000011100000000100001110000000010000111000000001000011100000000100001110000000010000111 ($
b10000110000000001000011000000000100001100000000010000110000000001000011000000000100001100000000010000110000000001000011000000000100001100000000010000110000000001000011000000000100001100000000010000110000000001000011000000000100001100000000010000110 l&
#36
b10001000000000001000100000000000100010000000000010001000000000001000100000000000100010000000000010001000000000001000100000000000100010000000000010001000000000001000100000000000100010000000000010001000000000001000100000000000100010000000000010001000 ($
b10000111000000001000011100000000100001110000000010000111000000001000011100000000100001110000000010000111000000001000011100000000100001110000000010000111000000001000011100000000100001110000000010000111000000001000011100000000100001110000000010000111 l&
1U)
#37
b1010011000000 i#
b10001001000000001000100100000000100010010000000010001001000000001000100100000000100010010000000010001001000000001000100100000000100010010000000010001001000000001000100100000000100010010000000010001001000000001000100100000000100010010000000010001001 ($
b10001000000000001000100000000000100010000000000010001000000000001000100000000000100010000000000010001000000000001000100000000000100010000000000010001000000000001000100000000000100010000000000010001000000000001000100000000000100010000000000010001000 l&
1R)
0U)
#38
b10001010000000001000101000000000100010100000000010001010000000001000101000000000100010100000000010001010000000001000101000000000100010100000000010001010000000001000101000000000100010100000000010001010000000001000101000000000100010100000000010001010 ($
b10001001000000001000100100000000100010010000000010001001000000001000100100000000100010010000000010001001000000001000100100000000100010010000000010001001000000001000100100000000100010010000000010001001000000001000100100000000100010010000000010001001 l&
0R)
#39
b10001011000000001000101100000000100010110000000010001011000000001000101100000000100010110000000010001011000000001000101100000000100010110000000010001011000000001000101100000000100010110000000010001011000000001000101100000000100010110000000010001011 ($
b10001010000000001000101000000000100010100000000010001010000000001000101000000000100010100000000010001010000000001000101000000000100010100000000010001010000000001000101000000000100010100000000010001010000000001000101000000000100010100000000010001010 l&
#40
b10001100000000001000110000000000100011000000000010001100000000001000110000000000100011000000000010001100000000001000110000000000100011000000000010001100000000001000110000000000100011000000000010001100000000001000110000000000100011000000000010001100 ($
b10001011000000001000101100000000100010110000000010001011000000001000101100000000100010110000000010001011000000001000101100000000100010110000000010001011000000001000101100000000100010110000000010001011000000001000101100000000100010110000000010001011 l&
1U)
#41
b1010011100000 i#
b10001101000000001000110100000000100011010000000010001101000000001000110100000000100011010000000010001101000000001000110100000000100011010000000010001101000000001000110100000000100011010000000010001101000000001000110100000000100011010000000010001101 ($
b10001100000000001000110000000000100011000000000010001100000000001000110000000000100011000000000010001100000000001000110000000000100011000000000010001100000000001000110000000000100011000000000010001100000000001000110000000000100011000000000010001100 l&
1R)
#42
b1010100000000 i#
b10001111000000001000111100000000100011110000000010001111000000001000111100000000100011110000000010001111000000001000111100000000100011110000000010001111000000001000111100000000100011110000000010001111000000001000111100000000100011110000000010001111 ($
b10001101000000001000110100000000100011010000000010001101000000001000110100000000100011010000000010001101000000001000110100000000100011010000000010001101000000001000110100000000100011010000000010001101000000001000110100000000100011010000000010001101 l&
#43
b1010100100000 i#
b10010000000000001001000000000000100100000000000010010000000000001001000000000000100100000000000010010000000000001001000000000000100100000000000010010000000000001001000000000000100100000000000010010000000000001001000000000000100100000000000010010000 ($
b10001111000000001000111100000000100011110000000010001111000000001000111100000000100011110000000010001111000000001000111100000000100011110000000010001111000000001000111100000000100011110000000010001111000000001000111100000000100011110000000010001111 l&
#44
b1010101000000 i#
b10010001000000001001000100000000100100010000000010010001000000001001000100000000100100010000000010010001000000001001000100000000100100010000000010010001000000001001000100000000100100010000000010010001000000001001000100000000100100010000000010010001 ($
b10010000000000001001000000000000100100000000000010010000000000001001000000000000100100000000000010010000000000001001000000000000100100000000000010010000000000001001000000000000100100000000000010010000000000001001000000000000100100000000000010010000 l&
#45
b1010101100000 i#
b10010010000000001001001000000000100100100000000010010010000000001001001000000000100100100000000010010010000000001001001000000000100100100000000010010010000000001001001000000000100100100000000010010010000000001001001000000000100100100000000010010010 ($
b10010001000000001001000100000000100100010000000010010001000000001001000100000000100100010000000010010001000000001001000100000000100100010000000010010001000000001001000100000000100100010000000010010001000000001001000100000000100100010000000010010001 l&
#46
b1010110000000 i#
b10010011000000001001001100000000100100110000000010010011000000001001001100000000100100110000000010010011000000001001001100000000100100110000000010010011000000001001001100000000100100110000000010010011000000001001001100000000100100110000000010010011 ($
b10010010000000001001001000000000100100100000000010010010000000001001001000000000100100100000000010010010000000001001001000000000100100100000000010010010000000001001001000000000100100100000000010010010000000001001001000000000100100100000000010010010 l&
#47
b1010110100000 i#
b10010100000000001001010000000000100101000000000010010100000000001001010000000000100101000000000010010100000000001001010000000000100101000000000010010100000000001001010000000000100101000000000010010100000000001001010000000000100101000000000010010100 ($
b10010011000000001001001100000000100100110000000010010011000000001001001100000000100100110000000010010011000000001001001100000000100100110000000010010011000000001001001100000000100100110000000010010011000000001001001100000000100100110000000010010011 l&
#48
b1010111000000 i#
b1110001000000000111000100000000011100010000000001110001000000000111000100000000011100010000000001110001000000000111000100000000011100010000000001110001000000000111000100000000011100010000000001110001000000000111000100000000011100010000000001110001 ($
b10010100000000001001010000000000100101000000000010010100000000001001010000000000100101000000000010010100000000001001010000000000100101000000000010010100000000001001010000000000100101000000000010010100000000001001010000000000100101000000000010010100 l&
0T)
#49
b1010111100000 i#
b10010101000000001001010100000000100101010000000010010101000000001001010100000000100101010000000010010101000000001001010100000000100101010000000010010101000000001001010100000000100101010000000010010101000000001001010100000000100101010000000010010101 ($
1T)
#50
b1011000000000 i#
b10010110000000001001011000000000100101100000000010010110000000001001011000000000100101100000000010010110000000001001011000000000100101100000000010010110000000001001011000000000100101100000000010010110000000001001011000000000100101100000000010010110 ($
b10010101000000001001010100000000100101010000000010010101000000001001010100000000100101010000000010010101000000001001010100000000100101010000000010010101000000001001010100000000100101010000000010010101000000001001010100000000100101010000000010010101 l&
#51
b1011000100000 i#
b1110011000000000111001100000000011100110000000001110011000000000111001100000000011100110000000001110011000000000111001100000000011100110000000001110011000000000111001100000000011100110000000001110011000000000111001100000000011100110000000001110011 ($
b10010110000000001001011000000000100101100000000010010110000000001001011000000000100101100000000010010110000000001001011000000000100101100000000010010110000000001001011000000000100101100000000010010110000000001001011000000000100101100000000010010110 l&
0T)
#52
b1011001000000 i#
#53
b1011001100000 i#
#54
b1011010000000 i#
#55
b1011010100000 i#
#56
b1011011000000 i#
#57
b1011011100000 i#
b10010111000000001001011100000000100101110000000010010111000000001001011100000000100101110000000010010111000000001001011100000000100101110000000010010111000000001001011100000000100101110000000010010111000000001001011100000000100101110000000010010111 ($
1T)
#58
b1011100000000 i#
b10011000000000001001100000000000100110000000000010011000000000001001100000000000100110000000000010011000000000001001100000000000100110000000000010011000000000001001100000000000100110000000000010011000000000001001100000000000100110000000000010011000 ($
b10010111000000001001011100000000100101110000000010010111000000001001011100000000100101110000000010010111000000001001011100000000100101110000000010010111000000001001011100000000100101110000000010010111000000001001011100000000100101110000000010010111 l&
#59
b1011100100000 i#
b10011001000000001001100100000000100110010000000010011001000000001001100100000000100110010000000010011001000000001001100100000000100110010000000010011001000000001001100100000000100110010000000010011001000000001001100100000000100110010000000010011001 ($
b10011000000000001001100000000000100110000000000010011000000000001001100000000000100110000000000010011000000000001001100000000000100110000000000010011000000000001001100000000000100110000000000010011000000000001001100000000000100110000000000010011000 l&
#60
b1011101000000 i#
b1111001000000000111100100000000011110010000000001111001000000000111100100000000011110010000000001111001000000000111100100000000011110010000000001111001000000000111100100000000011110010000000001111001000000000111100100000000011110010000000001111001 ($
b10011001000000001001100100000000100110010000000010011001000000001001100100000000100110010000000010011001000000001001100100000000100110010000000010011001000000001001100100000000100110010000000010011001000000001001100100000000100110010000000010011001 l&
0T)
#61
b1011101100000 i#
b10011010000000001001101000000000100110100000000010011010000000001001101000000000100110100000000010011010000000001001101000000000100110100000000010011010000000001001101000000000100110100000000010011010000000001001101000000000100110100000000010011010 ($
1T)
#62
b1011110000000 i#
b10011011000000001001101100000000100110110000000010011011000000001001101100000000100110110000000010011011000000001001101100000000100110110000000010011011000000001001101100000000100110110000000010011011000000001001101100000000100110110000000010011011 ($
b10011010000000001001101000000000100110100000000010011010000000001001101000000000100110100000000010011010000000001001101000000000100110100000000010011010000000001001101000000000100110100000000010011010000000001001101000000000100110100000000010011010 l&
#63
b1011110100000 i#
b10011100000000001001110000000000100111000000000010011100000000001001110000000000100111000000000010011100000000001001110000000000100111000000000010011100000000001001110000000000100111000000000010011100000000001001110000000000100111000000000010011100 ($
b10011011000000001001101100000000100110110000000010011011000000001001101100000000100110110000000010011011000000001001101100000000100110110000000010011011000000001001101100000000100110110000000010011011000000001001101100000000100110110000000010011011 l&
#64
b1011111000000 i#
b10011101000000001001110100000000100111010000000010011101000000001001110100000000100111010000000010011101000000001001110100000000100111010000000010011101000000001001110100000000100111010000000010011101000000001001110100000000100111010000000010011101 ($
b10011100000000001001110000000000100111000000000010011100000000001001110000000000100111000000000010011100000000001001110000000000100111000000000010011100000000001001110000000000100111000000000010011100000000001001110000000000100111000000000010011100 l&
#65
b1011111100000 i#
b10011110000000001001111000000000100111100000000010011110000000001001111000000000100111100000000010011110000000001001111000000000100111100000000010011110000000001001111000000000100111100000000010011110000000001001111000000000100111100000000010011110 ($
b10011101000000001001110100000000100111010000000010011101000000001001110100000000100111010000000010011101000000001001110100000000100111010000000010011101000000001001110100000000100111010000000010011101000000001001110100000000100111010000000010011101 l&
#66
b1100000000000 i#
b10011111000000001001111100000000100111110000000010011111000000001001111100000000100111110000000010011111000000001001111100000000100111110000000010011111000000001001111100000000100111110000000010011111000000001001111100000000100111110000000010011111 ($
b10011110000000001001111000000000100111100000000010011110000000001001111000000000100111100000000010011110000000001001111000000000100111100000000010011110000000001001111000000000100111100000000010011110000000001001111000000000100111100000000010011110 l&
#67
b1100000100000 i#
b10100000000000001010000000000000101000000000000010100000000000001010000000000000101000000000000010100000000000001010000000000000101000000000000010100000000000001010000000000000101000000000000010100000000000001010000000000000101000000000000010100000 ($
b10011111000000001001111100000000100111110000000010011111000000001001111100000000100111110000000010011111000000001001111100000000100111110000000010011111000000001001111100000000100111110000000010011111000000001001111100000000100111110000000010011111 l&
#68
b1100001000000 i#
b10100001000000001010000100000000101000010000000010100001000000001010000100000000101000010000000010100001000000001010000100000000101000010000000010100001000000001010000100000000101000010000000010100001000000001010000100000000101000010000000010100001 ($
b10100000000000001010000000000000101000000000000010100000000000001010000000000000101000000000000010100000000000001010000000000000101000000000000010100000000000001010000000000000101000000000000010100000000000001010000000000000101000000000000010100000 l&
#69
b1100001100000 i#
b10100010000000001010001000000000101000100000000010100010000000001010001000000000101000100000000010100010000000001010001000000000101000100000000010100010000000001010001000000000101000100000000010100010000000001010001000000000101000100000000010100010 ($
b10100001000000001010000100000000101000010000000010100001000000001010000100000000101000010000000010100001000000001010000100000000101000010000000010100001000000001010000100000000101000010000000010100001000000001010000100000000101000010000000010100001 l&
#70
b1100010000000 i#
b10100011000000001010001100000000101000110000000010100011000000001010001100000000101000110000000010100011000000001010001100000000101000110000000010100011000000001010001100000000101000110000000010100011000000001010001100000000101000110000000010100011 ($
b10100010000000001010001000000000101000100000000010100010000000001010001000000000101000100000000010100010000000001010001000000000101000100000000010100010000000001010001000000000101000100000000010100010000000001010001000000000101000100000000010100010 l&
#71
b1100010100000 i#
b10100100000000001010010000000000101001000000000010100100000000001010010000000000101001000000000010100100000000001010010000000000101001000000000010100100000000001010010000000000101001000000000010100100000000001010010000000000101001000000000010100100 ($
b10100011000000001010001100000000101000110000000010100011000000001010001100000000101000110000000010100011000000001010001100000000101000110000000010100011000000001010001100000000101000110000000010100011000000001010001100000000101000110000000010100011 l&
0U)
#72
b10100101000000001010010100000000101001010000000010100101000000001010010100000000101001010000000010100101000000001010010100000000101001010000000010100101000000001010010100000000101001010000000010100101000000001010010100000000101001010000000010100101 ($
b10100100000000001010010000000000101001000000000010100100000000001010010000000000101001000000000010100100000000001010010000000000101001000000000010100100000000001010010000000000101001000000000010100100000000001010010000000000101001000000000010100100 l&
0R)
#73
b10100110000000001010011000000000101001100000000010100110000000001010011000000000101001100000000010100110000000001010011000000000101001100000000010100110000000001010011000000000101001100000000010100110000000001010011000000000101001100000000010100110 ($
b10100101000000001010010100000000101001010000000010100101000000001010010100000000101001010000000010100101000000001010010100000000101001010000000010100101000000001010010100000000101001010000000010100101000000001010010100000000101001010000000010100101 l&
#74
b10101001000000001010100100000000101010010000000010101001000000001010100100000000101010010000000010101001000000001010100100000000101010010000000010101001000000001010100100000000101010010000000010101001000000001010100100000000101010010000000010101001 ($
b10100110000000001010011000000000101001100000000010100110000000001010011000000000101001100000000010100110000000001010011000000000101001100000000010100110000000001010011000000000101001100000000010100110000000001010011000000000101001100000000010100110 l&
1U)
#75
b1100011000000 i#
b10101010000000001010101000000000101010100000000010101010000000001010101000000000101010100000000010101010000000001010101000000000101010100000000010101010000000001010101000000000101010100000000010101010000000001010101000000000101010100000000010101010 ($
b10101001000000001010100100000000101010010000000010101001000000001010100100000000101010010000000010101001000000001010100100000000101010010000000010101001000000001010100100000000101010010000000010101001000000001010100100000000101010010000000010101001 l&
1R)
0U)
#76
b10101011000000001010101100000000101010110000000010101011000000001010101100000000101010110000000010101011000000001010101100000000101010110000000010101011000000001010101100000000101010110000000010101011000000001010101100000000101010110000000010101011 ($
b10101010000000001010101000000000101010100000000010101010000000001010101000000000101010100000000010101010000000001010101000000000101010100000000010101010000000001010101000000000101010100000000010101010000000001010101000000000101010100000000010101010 l&
0R)
#77
b10101100000000001010110000000000101011000000000010101100000000001010110000000000101011000000000010101100000000001010110000000000101011000000000010101100000000001010110000000000101011000000000010101100000000001010110000000000101011000000000010101100 ($
b10101011000000001010101100000000101010110000000010101011000000001010101100000000101010110000000010101011000000001010101100000000101010110000000010101011000000001010101100000000101010110000000010101011000000001010101100000000101010110000000010101011 l&
#78
b10101101000000001010110100000000101011010000000010101101000000001010110100000000101011010000000010101101000000001010110100000000101011010000000010101101000000001010110100000000101011010000000010101101000000001010110100000000101011010000000010101101 ($
b10101100000000001010110000000000101011000000000010101100000000001010110000000000101011000000000010101100000000001010110000000000101011000000000010101100000000001010110000000000101011000000000010101100000000001010110000000000101011000000000010101100 l&
1U)
#79
b1100011100000 i#
b10101110000000001010111000000000101011100000000010101110000000001010111000000000101011100000000010101110000000001010111000000000101011100000000010101110000000001010111000000000101011100000000010101110000000001010111000000000101011100000000010101110 ($
b10101101000000001010110100000000101011010000000010101101000000001010110100000000101011010000000010101101000000001010110100000000101011010000000010101101000000001010110100000000101011010000000010101101000000001010110100000000101011010000000010101101 l&
1R)
#80
b1100100000000 i#
b10101111000000001010111100000000101011110000000010101111000000001010111100000000101011110000000010101111000000001010111100000000101011110000000010101111000000001010111100000000101011110000000010101111000000001010111100000000101011110000000010101111 ($
b10101110000000001010111000000000101011100000000010101110000000001010111000000000101011100000000010101110000000001010111000000000101011100000000010101110000000001010111000000000101011100000000010101110000000001010111000000000101011100000000010101110 l&
#81
b1100100100000 i#
b10110000000000001011000000000000101100000000000010110000000000001011000000000000101100000000000010110000000000001011000000000000101100000000000010110000000000001011000000000000101100000000000010110000000000001011000000000000101100000000000010110000 ($
b10101111000000001010111100000000101011110000000010101111000000001010111100000000101011110000000010101111000000001010111100000000101011110000000010101111000000001010111100000000101011110000000010101111000000001010111100000000101011110000000010101111 l&
#82
b1100101000000 i#
b10110001000000001011000100000000101100010000000010110001000000001011000100000000101100010000000010110001000000001011000100000000101100010000000010110001000000001011000100000000101100010000000010110001000000001011000100000000101100010000000010110001 ($
b10110000000000001011000000000000101100000000000010110000000000001011000000000000101100000000000010110000000000001011000000000000101100000000000010110000000000001011000000000000101100000000000010110000000000001011000000000000101100000000000010110000 l&
#83
b1100101100000 i#
b10110010000000001011001000000000101100100000000010110010000000001011001000000000101100100000000010110010000000001011001000000000101100100000000010110010000000001011001000000000101100100000000010110010000000001011001000000000101100100000000010110010 ($
b10110001000000001011000100000000101100010000000010110001000000001011000100000000101100010000000010110001000000001011000100000000101100010000000010110001000000001011000100000000101100010000000010110001000000001011000100000000101100010000000010110001 l&
#84
b1100110000000 i#
b10110011000000001011001100000000101100110000000010110011000000001011001100000000101100110000000010110011000000001011001100000000101100110000000010110011000000001011001100000000101100110000000010110011000000001011001100000000101100110000000010110011 ($
b10110010000000001011001000000000101100100000000010110010000000001011001000000000101100100000000010110010000000001011001000000000101100100000000010110010000000001011001000000000101100100000000010110010000000001011001000000000101100100000000010110010 l&
#85
b1100110100000 i#
b10110100000000001011010000000000101101000000000010110100000000001011010000000000101101000000000010110100000000001011010000000000101101000000000010110100000000001011010000000000101101000000000010110100000000001011010000000000101101000000000010110100 ($
b10110011000000001011001100000000101100110000000010110011000000001011001100000000101100110000000010110011000000001011001100000000101100110000000010110011000000001011001100000000101100110000000010110011000000001011001100000000101100110000000010110011 l&
#86
b1100111000000 i#
b10010011000000001001001100000000100100110000000010010011000000001001001100000000100100110000000010010011000000001001001100000000100100110000000010010011000000001001001100000000100100110000000010010011000000001001001100000000100100110000000010010011 ($
b10110100000000001011010000000000101101000000000010110100000000001011010000000000101101000000000010110100000000001011010000000000101101000000000010110100000000001011010000000000101101000000000010110100000000001011010000000000101101000000000010110100 l&
0T)
#87
b1100111100000 i#
b10110101000000001011010100000000101101010000000010110101000000001011010100000000101101010000000010110101000000001011010100000000101101010000000010110101000000001011010100000000101101010000000010110101000000001011010100000000101101010000000010110101 ($
1T)
#88
b1101000000000 i#
b10110110000000001011011000000000101101100000000010110110000000001011011000000000101101100000000010110110000000001011011000000000101101100000000010110110000000001011011000000000101101100000000010110110000000001011011000000000101101100000000010110110 ($
b10110101000000001011010100000000101101010000000010110101000000001011010100000000101101010000000010110101000000001011010100000000101101010000000010110101000000001011010100000000101101010000000010110101000000001011010100000000101101010000000010110101 l&
