DEMO/k726_sfp12_gtx_1g/.Xil/Vivado-6000-FXTVWR85EI30285/hw_ila_data_1/zip_work/waveform.vcd
$date
        2020-Jul-22 18:06:21
$end
$version
        Vivado v2019.2 (64-bit)
$end
$timescale
        1ps
$end
$scope module dut $end
$var reg 2 " gt1_frame_check/rx_ctrl [1:0] $end
$var reg 2 $ gt0_frame_check/rx_ctrl [1:0] $end
$var reg 64 & gt1_frame_check/rx_data_wire [63:0] $end
$var reg 8 f gt0_frame_gen/tx_ctrl [7:0] $end
$var reg 64 n gt0_frame_check/rx_data_wire [63:0] $end
$var reg 80 P" gt1_frame_gen/tx_data_out_wire [79:0] $end
$var reg 80 B# gt0_frame_gen/tx_data_out_wire [79:0] $end
$var reg 8 4$ gt1_frame_gen/tx_ctrl [7:0] $end
$var reg 1 <$ rxresetdone_vio_i $end
$var reg 1 =$ soft_reset_vio_i $end
$var reg 1 >$ _TRIGGER $end
$var reg 1 ?$ _WINDOW $end
$var reg 1 @$ _GAP $end
$upscope $end
$enddefinitions $end
#0
$dumpvars
b0 "
b0 $
b11110000111010001110000011011 &
b0 f
b11110000111010001110000011011 n
b11100000110100001100000010110000000000000000 P"
b11100000110100001100000010110000000000000000 B#
b0 4$
0<$
0=$
0>$
1?$
0@$
$end
#1
b100010001000010010000000011111 &
b100010001000010010000000011111 n
b100100001000100010000000011110000000000000000 P"
b100100001000100010000000011110000000000000000 B#
#2
b100110001001010010010000100011 &
b100110001001010010010000100011 n
b101100001010100010100000100110000000000000000 P"
b101100001010100010100000100110000000000000000 B#
#3
b101010001010010010100000100111 &
b101010001010010010100000100111 n
b110100001100100011000000101110000000000000000 P"
b110100001100100011000000101110000000000000000 B#
#4
b101110001011010010110000101011 &
b101110001011010010110000101011 n
b111100001110100011100000110110000000000000000 P"
b111100001110100011100000110110000000000000000 B#
#5
b110010001100010011000000101111 &
b110010001100010011000000101111 n
b1000100010000100100000000111110000000000000000 P"
b1000100010000100100000000111110000000000000000 B#
#6
b110110001101010011010000110011 &
b110110001101010011010000110011 n
b1001100010010100100100001000110000000000000000 P"
b1001100010010100100100001000110000000000000000 B#
#7
b111010001110010011100000110111 &
b111010001110010011100000110111 n
b1010100010100100101000001001110000000000000000 P"
b1010100010100100101000001001110000000000000000 B#
#8
b111110001111010011110000111011 &
b111110001111010011110000111011 n
b1011100010110100101100001010110000000000000000 P"
b1011100010110100101100001010110000000000000000 B#
#9
b11000000100000000100000000 &
b11000000100000000100000000 n
b1100100011000100110000001011110000000000000000 P"
b1100100011000100110000001011110000000000000000 B#
#10
b1 "
b1 $
b110000001010000010010111100 &
b110000001010000010010111100 n
b1101100011010100110100001100110000000000000000 P"
b1101100011010100110100001100110000000000000000 B#
#11
b0 "
b0 $
b1010000010010000100000000111 &
b1010000010010000100000000111 n
b1110100011100100111000001101110000000000000000 P"
b1110100011100100111000001101110000000000000000 B#
#12
b1110000011010000110000001011 &
b1110000011010000110000001011 n
b1111100011110100111100001110110000000000000000 P"
b1111100011110100111100001110110000000000000000 B#
#13
b10010000100010001000000001111 &
b10010000100010001000000001111 n
b110000001000000001000000000000000000000000 P"
b110000001000000001000000000000000000000000 B#
#14
b10110000101010001010000010011 &
b1 f
b10110000101010001010000010011 n
b1100000010100000100101111000000000100000000 P"
b1100000010100000100101111000000000100000000 B#
b1 4$
#15
b11010000110010001100000010111 &
b0 f
b11010000110010001100000010111 n
b10100000100100001000000001110000000000000000 P"
b10100000100100001000000001110000000000000000 B#
b0 4$
#16
b11110000111010001110000011011 &
b11110000111010001110000011011 n
b11100000110100001100000010110000000000000000 P"
b11100000110100001100000010110000000000000000 B#
#17
b100010001000010010000000011111 &
b100010001000010010000000011111 n
b100100001000100010000000011110000000000000000 P"
b100100001000100010000000011110000000000000000 B#
#18
b100110001001010010010000100011 &
b100110001001010010010000100011 n
b101100001010100010100000100110000000000000000 P"
b101100001010100010100000100110000000000000000 B#
#19
b101010001010010010100000100111 &
b101010001010010010100000100111 n
b110100001100100011000000101110000000000000000 P"
b110100001100100011000000101110000000000000000 B#
#20
b101110001011010010110000101011 &
b101110001011010010110000101011 n
b111100001110100011100000110110000000000000000 P"
b111100001110100011100000110110000000000000000 B#
#21
b110010001100010011000000101111 &
b110010001100010011000000101111 n
b1000100010000100100000000111110000000000000000 P"
b1000100010000100100000000111110000000000000000 B#
#22
b110110001101010011010000110011 &
b110110001101010011010000110011 n
b1001100010010100100100001000110000000000000000 P"
b1001100010010100100100001000110000000000000000 B#
#23
b111010001110010011100000110111 &
b111010001110010011100000110111 n
b1010100010100100101000001001110000000000000000 P"
b1010100010100100101000001001110000000000000000 B#
#24
b111110001111010011110000111011 &
b111110001111010011110000111011 n
b1011100010110100101100001010110000000000000000 P"
b1011100010110100101100001010110000000000000000 B#
#25
b11000000100000000100000000 &
b11000000100000000100000000 n
b1100100011000100110000001011110000000000000000 P"
b1100100011000100110000001011110000000000000000 B#
#26
b1 "
b1 $
b110000001010000010010111100 &
b110000001010000010010111100 n
b1101100011010100110100001100110000000000000000 P"
b1101100011010100110100001100110000000000000000 B#
#27
b0 "
b0 $
b1010000010010000100000000111 &
b1010000010010000100000000111 n
b1110100011100100111000001101110000000000000000 P"
b1110100011100100111000001101110000000000000000 B#
#28
b1110000011010000110000001011 &
b1110000011010000110000001011 n
b1111100011110100111100001110110000000000000000 P"
b1111100011110100111100001110110000000000000000 B#
#29
b10010000100010001000000001111 &
b10010000100010001000000001111 n
b110000001000000001000000000000000000000000 P"
b110000001000000001000000000000000000000000 B#
#30
b10110000101010001010000010011 &
b1 f
b10110000101010001010000010011 n
b1100000010100000100101111000000000100000000 P"
b1100000010100000100101111000000000100000000 B#
b1 4$
#31
b11010000110010001100000010111 &
b0 f
b11010000110010001100000010111 n
b10100000100100001000000001110000000000000000 P"
b10100000100100001000000001110000000000000000 B#
b0 4$
#32
b11110000111010001110000011011 &
b11110000111010001110000011011 n
b11100000110100001100000010110000000000000000 P"
b11100000110100001100000010110000000000000000 B#
#33
b100010001000010010000000011111 &
b100010001000010010000000011111 n
b100100001000100010000000011110000000000000000 P"
b100100001000100010000000011110000000000000000 B#
#34
b100110001001010010010000100011 &
b100110001001010010010000100011 n
b101100001010100010100000100110000000000000000 P"
b101100001010100010100000100110000000000000000 B#
#35
b101010001010010010100000100111 &
b101010001010010010100000100111 n
b110100001100100011000000101110000000000000000 P"
b110100001100100011000000101110000000000000000 B#
#36
b101110001011010010110000101011 &
b101110001011010010110000101011 n
b111100001110100011100000110110000000000000000 P"
b111100001110100011100000110110000000000000000 B#
#37
b110010001100010011000000101111 &
b110010001100010011000000101111 n
b1000100010000100100000000111110000000000000000 P"
b1000100010000100100000000111110000000000000000 B#
#38
b110110001101010011010000110011 &
b110110001101010011010000110011 n
b1001100010010100100100001000110000000000000000 P"
b1001100010010100100100001000110000000000000000 B#
#39
b111010001110010011100000110111 &
b111010001110010011100000110111 n
b1010100010100100101000001001110000000000000000 P"
b1010100010100100101000001001110000000000000000 B#
#40
b111110001111010011110000111011 &
b111110001111010011110000111011 n
b1011100010110100101100001010110000000000000000 P"
b1011100010110100101100001010110000000000000000 B#
#41
b11000000100000000100000000 &
b11000000100000000100000000 n
b1100100011000100110000001011110000000000000000 P"
b1100100011000100110000001011110000000000000000 B#
#42
b1 "
b1 $
b110000001010000010010111100 &
b110000001010000010010111100 n
b1101100011010100110100001100110000000000000000 P"
b1101100011010100110100001100110000000000000000 B#
#43
b0 "
b0 $
b1010000010010000100000000111 &
b1010000010010000100000000111 n
b1110100011100100111000001101110000000000000000 P"
b1110100011100100111000001101110000000000000000 B#
#44
b1110000011010000110000001011 &
b1110000011010000110000001011 n
b1111100011110100111100001110110000000000000000 P"
b1111100011110100111100001110110000000000000000 B#
#45
b10010000100010001000000001111 &
b10010000100010001000000001111 n
b110000001000000001000000000000000000000000 P"
b110000001000000001000000000000000000000000 B#
#46
b10110000101010001010000010011 &
b1 f
b10110000101010001010000010011 n
b1100000010100000100101111000000000100000000 P"
b1100000010100000100101111000000000100000000 B#
b1 4$
#47
b11010000110010001100000010111 &
b0 f
b11010000110010001100000010111 n
b10100000100100001000000001110000000000000000 P"
b10100000100100001000000001110000000000000000 B#
b0 4$
#48
b11110000111010001110000011011 &
b11110000111010001110000011011 n
b11100000110100001100000010110000000000000000 P"
b11100000110100001100000010110000000000000000 B#
#49
b100010001000010010000000011111 &
b100010001000010010000000011111 n
b100100001000100010000000011110000000000000000 P"
b100100001000100010000000011110000000000000000 B#
#50
b100110001001010010010000100011 &
b100110001001010010010000100011 n
b101100001010100010100000100110000000000000000 P"
b101100001010100010100000100110000000000000000 B#
#51
b101010001010010010100000100111 &
b101010001010010010100000100111 n
b110100001100100011000000101110000000000000000 P"
b110100001100100011000000101110000000000000000 B#
#52
b101110001011010010110000101011 &
b101110001011010010110000101011 n
b111100001110100011100000110110000000000000000 P"
b111100001110100011100000110110000000000000000 B#
#53
b110010001100010011000000101111 &
b110010001100010011000000101111 n
b1000100010000100100000000111110000000000000000 P"
b1000100010000100100000000111110000000000000000 B#
#54
b110110001101010011010000110011 &
b110110001101010011010000110011 n
b1001100010010100100100001000110000000000000000 P"
b1001100010010100100100001000110000000000000000 B#
#55
b111010001110010011100000110111 &
b111010001110010011100000110111 n
b1010100010100100101000001001110000000000000000 P"
b1010100010100100101000001001110000000000000000 B#
#56
b111110001111010011110000111011 &
b111110001111010011110000111011 n
b1011100010110100101100001010110000000000000000 P"
b1011100010110100101100001010110000000000000000 B#
#57
b11000000100000000100000000 &
b11000000100000000100000000 n
b1100100011000100110000001011110000000000000000 P"
b1100100011000100110000001011110000000000000000 B#
#58
b1 "
b1 $
b110000001010000010010111100 &
b110000001010000010010111100 n
b1101100011010100110100001100110000000000000000 P"
b1101100011010100110100001100110000000000000000 B#
#59
b0 "
b0 $
b1010000010010000100000000111 &
b1010000010010000100000000111 n
b1110100011100100111000001101110000000000000000 P"
b1110100011100100111000001101110000000000000000 B#
#60
b1110000011010000110000001011 &
b1110000011010000110000001011 n
b1111100011110100111100001110110000000000000000 P"
b1111100011110100111100001110110000000000000000 B#
#61
b10010000100010001000000001111 &
b10010000100010001000000001111 n
b110000001000000001000000000000000000000000 P"
b110000001000000001000000000000000000000000 B#
#62
b10110000101010001010000010011 &
b1 f
b10110000101010001010000010011 n
b1100000010100000100101111000000000100000000 P"
b1100000010100000100101111000000000100000000 B#
b1 4$
#63
b11010000110010001100000010111 &
b0 f
b11010000110010001100000010111 n
b10100000100100001000000001110000000000000000 P"
b10100000100100001000000001110000000000000000 B#
b0 4$
#64
b11110000111010001110000011011 &
b11110000111010001110000011011 n
b11100000110100001100000010110000000000000000 P"
b11100000110100001100000010110000000000000000 B#
#65
b100010001000010010000000011111 &
b100010001000010010000000011111 n
b100100001000100010000000011110000000000000000 P"
b100100001000100010000000011110000000000000000 B#
#66
b100110001001010010010000100011 &
b100110001001010010010000100011 n
b101100001010100010100000100110000000000000000 P"
b101100001010100010100000100110000000000000000 B#
#67
b101010001010010010100000100111 &
b101010001010010010100000100111 n
b110100001100100011000000101110000000000000000 P"
b110100001100100011000000101110000000000000000 B#
#68
b101110001011010010110000101011 &
b101110001011010010110000101011 n
b111100001110100011100000110110000000000000000 P"
b111100001110100011100000110110000000000000000 B#
#69
b110010001100010011000000101111 &
b110010001100010011000000101111 n
b1000100010000100100000000111110000000000000000 P"
b1000100010000100100000000111110000000000000000 B#
#70
b110110001101010011010000110011 &
b110110001101010011010000110011 n
b1001100010010100100100001000110000000000000000 P"
b1001100010010100100100001000110000000000000000 B#
#71
b111010001110010011100000110111 &
b111010001110010011100000110111 n
b1010100010100100101000001001110000000000000000 P"
b1010100010100100101000001001110000000000000000 B#
#72
b111110001111010011110000111011 &
b111110001111010011110000111011 n
b1011100010110100101100001010110000000000000000 P"
b1011100010110100101100001010110000000000000000 B#
#73
b11000000100000000100000000 &
b11000000100000000100000000 n
b1100100011000100110000001011110000000000000000 P"
b1100100011000100110000001011110000000000000000 B#
#74
b1 "
b1 $
b110000001010000010010111100 &
b110000001010000010010111100 n
b1101100011010100110100001100110000000000000000 P"
b1101100011010100110100001100110000000000000000 B#
#75
b0 "
b0 $
b1010000010010000100000000111 &
b1010000010010000100000000111 n
b1110100011100100111000001101110000000000000000 P"
b1110100011100100111000001101110000000000000000 B#
#76
b1110000011010000110000001011 &
b1110000011010000110000001011 n
b1111100011110100111100001110110000000000000000 P"
b1111100011110100111100001110110000000000000000 B#
#77
b10010000100010001000000001111 &
b10010000100010001000000001111 n
b110000001000000001000000000000000000000000 P"
b110000001000000001000000000000000000000000 B#
#78
b10110000101010001010000010011 &
b1 f
b10110000101010001010000010011 n
b1100000010100000100101111000000000100000000 P"
b1100000010100000100101111000000000100000000 B#
b1 4$
#79
b11010000110010001100000010111 &
b0 f
b11010000110010001100000010111 n
b10100000100100001000000001110000000000000000 P"
b10100000100100001000000001110000000000000000 B#
b0 4$
#80
b11110000111010001110000011011 &
b11110000111010001110000011011 n
b11100000110100001100000010110000000000000000 P"
b11100000110100001100000010110000000000000000 B#
#81
b100010001000010010000000011111 &
b100010001000010010000000011111 n
b100100001000100010000000011110000000000000000 P"
b100100001000100010000000011110000000000000000 B#
#82
b100110001001010010010000100011 &
b100110001001010010010000100011 n
b101100001010100010100000100110000000000000000 P"
b101100001010100010100000100110000000000000000 B#
#83
b101010001010010010100000100111 &
b101010001010010010100000100111 n
b110100001100100011000000101110000000000000000 P"
b110100001100100011000000101110000000000000000 B#
#84
b101110001011010010110000101011 &
b101110001011010010110000101011 n
b111100001110100011100000110110000000000000000 P"
b111100001110100011100000110110000000000000000 B#
#85
b110010001100010011000000101111 &
b110010001100010011000000101111 n
b1000100010000100100000000111110000000000000000 P"
b1000100010000100100000000111110000000000000000 B#
#86
b110110001101010011010000110011 &
b110110001101010011010000110011 n
b1001100010010100100100001000110000000000000000 P"
b1001100010010100100100001000110000000000000000 B#
#87
b111010001110010011100000110111 &
b111010001110010011100000110111 n
b1010100010100100101000001001110000000000000000 P"
b1010100010100100101000001001110000000000000000 B#
#88
b111110001111010011110000111011 &
b111110001111010011110000111011 n
b1011100010110100101100001010110000000000000000 P"
b1011100010110100101100001010110000000000000000 B#
#89
b11000000100000000100000000 &
b11000000100000000100000000 n
b1100100011000100110000001011110000000000000000 P"
b1100100011000100110000001011110000000000000000 B#
#90
b1 "
b1 $
b110000001010000010010111100 &
b110000001010000010010111100 n
b1101100011010100110100001100110000000000000000 P"
b1101100011010100110100001100110000000000000000 B#
#91
b0 "
b0 $
b1010000010010000100000000111 &
b1010000010010000100000000111 n
b1110100011100100111000001101110000000000000000 P"
b1110100011100100111000001101110000000000000000 B#
#92
b1110000011010000110000001011 &
b1110000011010000110000001011 n
b1111100011110100111100001110110000000000000000 P"
b1111100011110100111100001110110000000000000000 B#
#93
b10010000100010001000000001111 &
b10010000100010001000000001111 n
b110000001000000001000000000000000000000000 P"
b110000001000000001000000000000000000000000 B#
#94
b10110000101010001010000010011 &
b1 f
b10110000101010001010000010011 n
b1100000010100000100101111000000000100000000 P"
b1100000010100000100101111000000000100000000 B#
b1 4$
#95
b11010000110010001100000010111 &
b0 f
b11010000110010001100000010111 n
b10100000100100001000000001110000000000000000 P"
b10100000100100001000000001110000000000000000 B#
b0 4$
#96
b11110000111010001110000011011 &
b11110000111010001110000011011 n
b11100000110100001100000010110000000000000000 P"
b11100000110100001100000010110000000000000000 B#
#97
b100010001000010010000000011111 &
b100010001000010010000000011111 n
b100100001000100010000000011110000000000000000 P"
b100100001000100010000000011110000000000000000 B#
#98
b100110001001010010010000100011 &
b100110001001010010010000100011 n
b101100001010100010100000100110000000000000000 P"
b101100001010100010100000100110000000000000000 B#
#99
b101010001010010010100000100111 &
b101010001010010010100000100111 n
b110100001100100011000000101110000000000000000 P"
b110100001100100011000000101110000000000000000 B#
#100
b101110001011010010110000101011 &
b101110001011010010110000101011 n
b111100001110100011100000110110000000000000000 P"
b111100001110100011100000110110000000000000000 B#
#101
b110010001100010011000000101111 &
b110010001100010011000000101111 n
b1000100010000100100000000111110000000000000000 P"
b1000100010000100100000000111110000000000000000 B#
#102
b110110001101010011010000110011 &
b110110001101010011010000110011 n
b1001100010010100100100001000110000000000000000 P"
b1001100010010100100100001000110000000000000000 B#
#103
b111010001110010011100000110111 &
b111010001110010011100000110111 n
b1010100010100100101000001001110000000000000000 P"
b1010100010100100101000001001110000000000000000 B#
#104
b111110001111010011110000111011 &
b111110001111010011110000111011 n
b1011100010110100101100001010110000000000000000 P"
b1011100010110100101100001010110000000000000000 B#
#105
b11000000100000000100000000 &
b11000000100000000100000000 n
b1100100011000100110000001011110000000000000000 P"
b1100100011000100110000001011110000000000000000 B#
#106
b1 "
b1 $
b110000001010000010010111100 &
b110000001010000010010111100 n
b1101100011010100110100001100110000000000000000 P"
b1101100011010100110100001100110000000000000000 B#
#107
b0 "
b0 $
b1010000010010000100000000111 &
b1010000010010000100000000111 n
b1110100011100100111000001101110000000000000000 P"
b1110100011100100111000001101110000000000000000 B#
#108
b1110000011010000110000001011 &
b1110000011010000110000001011 n
b1111100011110100111100001110110000000000000000 P"
b1111100011110100111100001110110000000000000000 B#
#109
b10010000100010001000000001111 &
b10010000100010001000000001111 n
b110000001000000001000000000000000000000000 P"
b110000001000000001000000000000000000000000 B#
#110
b10110000101010001010000010011 &
b1 f
b10110000101010001010000010011 n
b1100000010100000100101111000000000100000000 P"
b1100000010100000100101111000000000100000000 B#
b1 4$
#111
b11010000110010001100000010111 &
b0 f
b11010000110010001100000010111 n
b10100000100100001000000001110000000000000000 P"
b10100000100100001000000001110000000000000000 B#
b0 4$
#112
b11110000111010001110000011011 &
b11110000111010001110000011011 n
b11100000110100001100000010110000000000000000 P"
b11100000110100001100000010110000000000000000 B#
#113
b100010001000010010000000011111 &
b100010001000010010000000011111 n
b100100001000100010000000011110000000000000000 P"
b100100001000100010000000011110000000000000000 B#
#114
b100110001001010010010000100011 &
b100110001001010010010000100011 n
b101100001010100010100000100110000000000000000 P"
b101100001010100010100000100110000000000000000 B#
#115
b101010001010010010100000100111 &
b101010001010010010100000100111 n
b110100001100100011000000101110000000000000000 P"
b110100001100100011000000101110000000000000000 B#
#116
b101110001011010010110000101011 &
b101110001011010010110000101011 n
b111100001110100011100000110110000000000000000 P"
b111100001110100011100000110110000000000000000 B#
#117
b110010001100010011000000101111 &
b110010001100010011000000101111 n
b1000100010000100100000000111110000000000000000 P"
b1000100010000100100000000111110000000000000000 B#
#118
b110110001101010011010000110011 &
b110110001101010011010000110011 n
b1001100010010100100100001000110000000000000000 P"
b1001100010010100100100001000110000000000000000 B#
#119
b111010001110010011100000110111 &
b111010001110010011100000110111 n
b1010100010100100101000001001110000000000000000 P"
b1010100010100100101000001001110000000000000000 B#
#120
b111110001111010011110000111011 &
b111110001111010011110000111011 n
b1011100010110100101100001010110000000000000000 P"
b1011100010110100101100001010110000000000000000 B#
#121
b11000000100000000100000000 &
b11000000100000000100000000 n
b1100100011000100110000001011110000000000000000 P"
b1100100011000100110000001011110000000000000000 B#
#122
b1 "
b1 $
b110000001010000010010111100 &
b110000001010000010010111100 n
b1101100011010100110100001100110000000000000000 P"
b1101100011010100110100001100110000000000000000 B#
#123
b0 "
b0 $
b1010000010010000100000000111 &
b1010000010010000100000000111 n
b1110100011100100111000001101110000000000000000 P"
b1110100011100100111000001101110000000000000000 B#
#124
b1110000011010000110000001011 &
b1110000011010000110000001011 n
b1111100011110100111100001110110000000000000000 P"
b1111100011110100111100001110110000000000000000 B#
#125
b10010000100010001000000001111 &
b10010000100010001000000001111 n
b110000001000000001000000000000000000000000 P"
b110000001000000001000000000000000000000000 B#
#126
b10110000101010001010000010011 &
b1 f
b10110000101010001010000010011 n
b1100000010100000100101111000000000100000000 P"
b1100000010100000100101111000000000100000000 B#
b1 4$
#127
b11010000110010001100000010111 &
b0 f
b11010000110010001100000010111 n
b10100000100100001000000001110000000000000000 P"
b10100000100100001000000001110000000000000000 B#
b0 4$
#128
b11110000111010001110000011011 &
b11110000111010001110000011011 n
b11100000110100001100000010110000000000000000 P"
b11100000110100001100000010110000000000000000 B#
#129
b100010001000010010000000011111 &
b100010001000010010000000011111 n
b100100001000100010000000011110000000000000000 P"
b100100001000100010000000011110000000000000000 B#
#130
b100110001001010010010000100011 &
b100110001001010010010000100011 n
b101100001010100010100000100110000000000000000 P"
b101100001010100010100000100110000000000000000 B#
#131
b101010001010010010100000100111 &
b101010001010010010100000100111 n
b110100001100100011000000101110000000000000000 P"
b110100001100100011000000101110000000000000000 B#
#132
b101110001011010010110000101011 &
b101110001011010010110000101011 n
b111100001110100011100000110110000000000000000 P"
b111100001110100011100000110110000000000000000 B#
#133
b110010001100010011000000101111 &
b110010001100010011000000101111 n
b1000100010000100100000000111110000000000000000 P"
b1000100010000100100000000111110000000000000000 B#
#134
b110110001101010011010000110011 &
b110110001101010011010000110011 n
b1001100010010100100100001000110000000000000000 P"
b1001100010010100100100001000110000000000000000 B#
#135
b111010001110010011100000110111 &
b111010001110010011100000110111 n
b1010100010100100101000001001110000000000000000 P"
b1010100010100100101000001001110000000000000000 B#
#136
b111110001111010011110000111011 &
b111110001111010011110000111011 n
b1011100010110100101100001010110000000000000000 P"
b1011100010110100101100001010110000000000000000 B#
#137
b11000000100000000100000000 &
b11000000100000000100000000 n
b1100100011000100110000001011110000000000000000 P"
b1100100011000100110000001011110000000000000000 B#
#138
b1 "
b1 $
b110000001010000010010111100 &
b110000001010000010010111100 n
b1101100011010100110100001100110000000000000000 P"
b1101100011010100110100001100110000000000000000 B#
#139
b0 "
b0 $
b1010000010010000100000000111 &
b1010000010010000100000000111 n
b1110100011100100111000001101110000000000000000 P"
b1110100011100100111000001101110000000000000000 B#
#140
b1110000011010000110000001011 &
b1110000011010000110000001011 n
b1111100011110100111100001110110000000000000000 P"
b1111100011110100111100001110110000000000000000 B#
#141
b10010000100010001000000001111 &
b10010000100010001000000001111 n
b110000001000000001000000000000000000000000 P"
b110000001000000001000000000000000000000000 B#
#142
b10110000101010001010000010011 &
b1 f
b10110000101010001010000010011 n
b1100000010100000100101111000000000100000000 P"
b1100000010100000100101111000000000100000000 B#
b1 4$
#143
b11010000110010001100000010111 &
b0 f
b11010000110010001100000010111 n
b10100000100100001000000001110000000000000000 P"
b10100000100100001000000001110000000000000000 B#
b0 4$
#144
b11110000111010001110000011011 &
b11110000111010001110000011011 n
b11100000110100001100000010110000000000000000 P"
b11100000110100001100000010110000000000000000 B#
#145
b100010001000010010000000011111 &
b100010001000010010000000011111 n
b100100001000100010000000011110000000000000000 P"
b100100001000100010000000011110000000000000000 B#
#146
b100110001001010010010000100011 &
b100110001001010010010000100011 n
b101100001010100010100000100110000000000000000 P"
b101100001010100010100000100110000000000000000 B#
#147
b101010001010010010100000100111 &
b101010001010010010100000100111 n
b110100001100100011000000101110000000000000000 P"
b110100001100100011000000101110000000000000000 B#
#148
b101110001011010010110000101011 &
b101110001011010010110000101011 n
b111100001110100011100000110110000000000000000 P"
b111100001110100011100000110110000000000000000 B#
#149
b110010001100010011000000101111 &
b110010001100010011000000101111 n
b1000100010000100100000000111110000000000000000 P"
b1000100010000100100000000111110000000000000000 B#
#150
b110110001101010011010000110011 &
b110110001101010011010000110011 n
b1001100010010100100100001000110000000000000000 P"
b1001100010010100100100001000110000000000000000 B#
#151
b111010001110010011100000110111 &
b111010001110010011100000110111 n
b1010100010100100101000001001110000000000000000 P"
b1010100010100100101000001001110000000000000000 B#
#152
b111110001111010011110000111011 &
b111110001111010011110000111011 n
b1011100010110100101100001010110000000000000000 P"
b1011100010110100101100001010110000000000000000 B#
#153
b11000000100000000100000000 &
b11000000100000000100000000 n
b1100100011000100110000001011110000000000000000 P"
b1100100011000100110000001011110000000000000000 B#
#154
b1 "
b1 $
b110000001010000010010111100 &
b110000001010000010010111100 n
b1101100011010100110100001100110000000000000000 P"
b1101100011010100110100001100110000000000000000 B#
#155
b0 "
b0 $
b1010000010010000100000000111 &
b1010000010010000100000000111 n
b1110100011100100111000001101110000000000000000 P"
b1110100011100100111000001101110000000000000000 B#
#156
b1110000011010000110000001011 &
b1110000011010000110000001011 n
b1111100011110100111100001110110000000000000000 P"
b1111100011110100111100001110110000000000000000 B#
#157
b10010000100010001000000001111 &
b10010000100010001000000001111 n
b110000001000000001000000000000000000000000 P"
b110000001000000001000000000000000000000000 B#
#158
b10110000101010001010000010011 &
b1 f
b10110000101010001010000010011 n
b1100000010100000100101111000000000100000000 P"
b1100000010100000100101111000000000100000000 B#
b1 4$
#159
b11010000110010001100000010111 &
b0 f
b11010000110010001100000010111 n
b10100000100100001000000001110000000000000000 P"
b10100000100100001000000001110000000000000000 B#
b0 4$
#160
b11110000111010001110000011011 &
b11110000111010001110000011011 n
b11100000110100001100000010110000000000000000 P"
b11100000110100001100000010110000000000000000 B#
#161
b100010001000010010000000011111 &
b100010001000010010000000011111 n
b100100001000100010000000011110000000000000000 P"
b100100001000100010000000011110000000000000000 B#
#162
b100110001001010010010000100011 &
b100110001001010010010000100011 n
b101100001010100010100000100110000000000000000 P"
b101100001010100010100000100110000000000000000 B#
#163
b101010001010010010100000100111 &
b101010001010010010100000100111 n
b110100001100100011000000101110000000000000000 P"
b110100001100100011000000101110000000000000000 B#
#164
b101110001011010010110000101011 &
b101110001011010010110000101011 n
b111100001110100011100000110110000000000000000 P"
b111100001110100011100000110110000000000000000 B#
#165
b110010001100010011000000101111 &
b110010001100010011000000101111 n
b1000100010000100100000000111110000000000000000 P"
b1000100010000100100000000111110000000000000000 B#
#166
b110110001101010011010000110011 &
b110110001101010011010000110011 n
b1001100010010100100100001000110000000000000000 P"
b1001100010010100100100001000110000000000000000 B#
#167
b111010001110010011100000110111 &
b111010001110010011100000110111 n
b1010100010100100101000001001110000000000000000 P"
b1010100010100100101000001001110000000000000000 B#
#168
b111110001111010011110000111011 &
b111110001111010011110000111011 n
b1011100010110100101100001010110000000000000000 P"
b1011100010110100101100001010110000000000000000 B#
#169
b11000000100000000100000000 &
b11000000100000000100000000 n
b1100100011000100110000001011110000000000000000 P"
b1100100011000100110000001011110000000000000000 B#
#170
b1 "
b1 $
b110000001010000010010111100 &
b110000001010000010010111100 n
b1101100011010100110100001100110000000000000000 P"
b1101100011010100110100001100110000000000000000 B#
#171
b0 "
b0 $
b1010000010010000100000000111 &
b1010000010010000100000000111 n
b1110100011100100111000001101110000000000000000 P"
b1110100011100100111000001101110000000000000000 B#
#172
b1110000011010000110000001011 &
b1110000011010000110000001011 n
b1111100011110100111100001110110000000000000000 P"
b1111100011110100111100001110110000000000000000 B#
#173
b10010000100010001000000001111 &
b10010000100010001000000001111 n
b110000001000000001000000000000000000000000 P"
b110000001000000001000000000000000000000000 B#
#174
b10110000101010001010000010011 &
b1 f
b10110000101010001010000010011 n
b1100000010100000100101111000000000100000000 P"
b1100000010100000100101111000000000100000000 B#
b1 4$
#175
b11010000110010001100000010111 &
b0 f
b11010000110010001100000010111 n
b10100000100100001000000001110000000000000000 P"
b10100000100100001000000001110000000000000000 B#
b0 4$
#176
b11110000111010001110000011011 &
b11110000111010001110000011011 n
b11100000110100001100000010110000000000000000 P"
b11100000110100001100000010110000000000000000 B#
#177
b100010001000010010000000011111 &
b100010001000010010000000011111 n
b100100001000100010000000011110000000000000000 P"
b100100001000100010000000011110000000000000000 B#
#178
b100110001001010010010000100011 &
b100110001001010010010000100011 n
b101100001010100010100000100110000000000000000 P"
b101100001010100010100000100110000000000000000 B#
#179
b101010001010010010100000100111 &
b101010001010010010100000100111 n
b110100001100100011000000101110000000000000000 P"
b110100001100100011000000101110000000000000000 B#
#180
b101110001011010010110000101011 &
b101110001011010010110000101011 n
b111100001110100011100000110110000000000000000 P"
b111100001110100011100000110110000000000000000 B#
#181
b110010001100010011000000101111 &
b110010001100010011000000101111 n
b1000100010000100100000000111110000000000000000 P"
b1000100010000100100000000111110000000000000000 B#
#182
b110110001101010011010000110011 &
b110110001101010011010000110011 n
b1001100010010100100100001000110000000000000000 P"
b1001100010010100100100001000110000000000000000 B#
#183
b111010001110010011100000110111 &
b111010001110010011100000110111 n
b1010100010100100101000001001110000000000000000 P"
b1010100010100100101000001001110000000000000000 B#
#184
b111110001111010011110000111011 &
b111110001111010011110000111011 n
b1011100010110100101100001010110000000000000000 P"
b1011100010110100101100001010110000000000000000 B#
#185
b11000000100000000100000000 &
b11000000100000000100000000 n
b1100100011000100110000001011110000000000000000 P"
b1100100011000100110000001011110000000000000000 B#
#186
b1 "
b1 $
b110000001010000010010111100 &
b110000001010000010010111100 n
b1101100011010100110100001100110000000000000000 P"
b1101100011010100110100001100110000000000000000 B#
#187
b0 "
b0 $
b1010000010010000100000000111 &
b1010000010010000100000000111 n
b1110100011100100111000001101110000000000000000 P"
b1110100011100100111000001101110000000000000000 B#
#188
b1110000011010000110000001011 &
b1110000011010000110000001011 n
b1111100011110100111100001110110000000000000000 P"
b1111100011110100111100001110110000000000000000 B#
#189
b10010000100010001000000001111 &
b10010000100010001000000001111 n
b110000001000000001000000000000000000000000 P"
b110000001000000001000000000000000000000000 B#
#190
b10110000101010001010000010011 &
b1 f
b10110000101010001010000010011 n
b1100000010100000100101111000000000100000000 P"
b1100000010100000100101111000000000100000000 B#
b1 4$
#191
b11010000110010001100000010111 &
b0 f
b11010000110010001100000010111 n
b10100000100100001000000001110000000000000000 P"
b10100000100100001000000001110000000000000000 B#
b0 4$
#192
b11110000111010001110000011011 &
b11110000111010001110000011011 n
b11100000110100001100000010110000000000000000 P"
b11100000110100001100000010110000000000000000 B#
#193
b100010001000010010000000011111 &
b100010001000010010000000011111 n
b100100001000100010000000011110000000000000000 P"
b100100001000100010000000011110000000000000000 B#
